timestamp,type,name,health_state,capacity_gb,type
1540422710933016093,disk_drive,scsi-35000cca25335bd9c,OK,11176,HDD
1540466917666064056,disk_drive,scsi-35000cca25335bd9c,OK,11176,HDD
1540410407075218631,disk_drive,scsi-35000cca25335bd9c,OK,11176,HDD
1540414882062293885,disk_drive,scsi-35000cca25335bd9c,OK,11176,HDD
1540413871162082640,disk_drive,scsi-35000cca25335bd9c,OK,11176,HDD
1540425435584575675,disk_drive,scsi-35000cca25335bd9c,OK,11176,HDD
1540408925269407787,disk_drive,scsi-35000cca25335bd9c,OK,11176,HDD
1540420501848253693,disk_drive,scsi-35000cca25335bd9c,OK,11176,HDD
1540411231439008046,disk_drive,scsi-35000cca25335bd9c,OK,11176,HDD
1540406879079025164,disk_drive,scsi-35000cca25335bd9c,OK,11176,HDD
1540407737916498273,disk_drive,scsi-35000cca25335bd9c,OK,11176,HDD
1540406220524727058,disk_drive,scsi-35000cca25335bd9c,OK,11176,HDD
1540414406444586417,disk_drive,scsi-35000cca25335bd9c,OK,11176,HDD
1540426067966429996,disk_drive,scsi-35000cca25335bd9c,OK,11176,HDD
1540410702941823850,disk_drive,scsi-35000cca25335bd9c,OK,11176,HDD
1540416547875890466,disk_drive,scsi-35000cca25335bd9c,OK,11176,HDD
1540414713050488608,disk_drive,scsi-35000cca25335bd9c,OK,11176,HDD
1540420208970679478,disk_drive,scsi-35000cca25335bd9c,OK,11176,HDD
1540423559573957123,disk_drive,scsi-35000cca25335bd9c,OK,11176,HDD
1540416884896376792,disk_drive,scsi-35000cca25335bd9c,OK,11176,HDD
1540412190004970042,disk_drive,scsi-35000cca25335bd9c,OK,11176,HDD
1540468682621319928,disk_drive,scsi-35000cca25335bd9c,OK,11176,HDD
1540418589124105223,disk_drive,scsi-35000cca25335bd9c,OK,11176,HDD
1540406581231171650,disk_drive,scsi-35000cca25335bd9c,OK,11176,HDD
1540424655738767278,disk_drive,scsi-35000cca25335bd9c,OK,11176,HDD
1540424356236937287,disk_drive,scsi-35000cca25335bd9c,OK,11176,HDD
1540411039538152839,disk_drive,scsi-35000cca25335bd9c,OK,11176,HDD
1540418005740280199,disk_drive,scsi-35000cca25335bd9c,OK,11176,HDD
1540424967899685651,disk_drive,scsi-35000cca25335bd9c,OK,11176,HDD
1540419174157875833,disk_drive,scsi-35000cca25335bd9c,OK,11176,HDD
1540415569647507751,disk_drive,scsi-35000cca25335bd9c,OK,11176,HDD
1540465776921980428,disk_drive,scsi-35000cca25335bd9c,OK,11176,HDD
1540415263344070912,disk_drive,scsi-35000cca25335bd9c,OK,11176,HDD
1540415411864580244,disk_drive,scsi-35000cca25335bd9c,OK,11176,HDD
1540468369322039181,disk_drive,scsi-35000cca25335bd9c,OK,11176,HDD
1540409458300754715,disk_drive,scsi-35000cca25335bd9c,OK,11176,HDD
1540423880604623753,disk_drive,scsi-35000cca25335bd9c,OK,11176,HDD
1540415905657356538,disk_drive,scsi-35000cca25335bd9c,OK,11176,HDD
1540467735458496527,disk_drive,scsi-35000cca25335bd9c,OK,11176,HDD
1540465937631955367,disk_drive,scsi-35000cca25335bd9c,OK,11176,HDD
1540409604171002520,disk_drive,scsi-35000cca25335bd9c,OK,11176,HDD
1540417333439822344,disk_drive,scsi-35000cca25335bd9c,OK,11176,HDD
1540408744540386362,disk_drive,scsi-35000cca25335bd9c,OK,11176,HDD
1540409299315531774,disk_drive,scsi-35000cca25335bd9c,OK,11176,HDD
1540404077054582793,disk_drive,scsi-35000cca25335bd9c,OK,11176,HDD
1540422460813584806,disk_drive,scsi-35000cca25335bd9c,OK,11176,HDD
1540409908137036523,disk_drive,scsi-35000cca25335bd9c,OK,11176,HDD
1540419620013574557,disk_drive,scsi-35000cca25335bd9c,OK,11176,HDD
1540466441432420690,disk_drive,scsi-35000cca25335bd9c,OK,11176,HDD
1540424039819269147,disk_drive,scsi-35000cca25335bd9c,OK,11176,HDD
1540423717370251241,disk_drive,scsi-35000cca25335bd9c,OK,11176,HDD
1540410865737321052,disk_drive,scsi-35000cca25335bd9c,OK,11176,HDD
1540420646558298277,disk_drive,scsi-35000cca25335bd9c,OK,11176,HDD
1540416243185513921,disk_drive,scsi-35000cca25335bd9c,OK,11176,HDD
1540415735581582556,disk_drive,scsi-35000cca25335bd9c,OK,11176,HDD
1540425122862283060,disk_drive,scsi-35000cca25335bd9c,OK,11176,HDD
1540468535090597064,disk_drive,scsi-35000cca25335bd9c,OK,11176,HDD
1540419773116775017,disk_drive,scsi-35000cca25335bd9c,OK,11176,HDD
1540411522287940528,disk_drive,scsi-35000cca25335bd9c,OK,11176,HDD
1540467416448186090,disk_drive,scsi-35000cca25335bd9c,OK,11176,HDD
1540411674228694839,disk_drive,scsi-35000cca25335bd9c,OK,11176,HDD
1540409750912026498,disk_drive,scsi-35000cca25335bd9c,OK,11176,HDD
1540414088548069610,disk_drive,scsi-35000cca25335bd9c,OK,11176,HDD
1540407037089463420,disk_drive,scsi-35000cca25335bd9c,OK,11176,HDD
1540422544605617222,disk_drive,scsi-35000cca25335bd9c,OK,11176,HDD
1540418443512026562,disk_drive,scsi-35000cca25335bd9c,OK,11176,HDD
1540420355262363701,disk_drive,scsi-35000cca25335bd9c,OK,11176,HDD
1540410552946156852,disk_drive,scsi-35000cca25335bd9c,OK,11176,HDD
1540467251580284794,disk_drive,scsi-35000cca25335bd9c,OK,11176,HDD
1540419918205063153,disk_drive,scsi-35000cca25335bd9c,OK,11176,HDD
1540417701933001655,disk_drive,scsi-35000cca25335bd9c,OK,11176,HDD
1540425288942361553,disk_drive,scsi-35000cca25335bd9c,OK,11176,HDD
1540417852468882689,disk_drive,scsi-35000cca25335bd9c,OK,11176,HDD
1540468215892157032,disk_drive,scsi-35000cca25335bd9c,OK,11176,HDD
1540411838132143061,disk_drive,scsi-35000cca25335bd9c,OK,11176,HDD
1540421085909931037,disk_drive,scsi-35000cca25335bd9c,OK,11176,HDD
1540410077762771272,disk_drive,scsi-35000cca25335bd9c,OK,11176,HDD
1540412335880566017,disk_drive,scsi-35000cca25335bd9c,OK,11176,HDD
1540404377384221906,disk_drive,scsi-35000cca25335bd9c,OK,11176,HDD
1540406726275871966,disk_drive,scsi-35000cca25335bd9c,OK,11176,HDD
1540421547872136809,disk_drive,scsi-35000cca25335bd9c,OK,11176,HDD
1540421234657380926,disk_drive,scsi-35000cca25335bd9c,OK,11176,HDD
1540417038484816305,disk_drive,scsi-35000cca25335bd9c,OK,11176,HDD
1540407908901548182,disk_drive,scsi-35000cca25335bd9c,OK,11176,HDD
1540423401533130975,disk_drive,scsi-35000cca25335bd9c,OK,11176,HDD
1540425907830703279,disk_drive,scsi-35000cca25335bd9c,OK,11176,HDD
1540409111965795151,disk_drive,scsi-35000cca25335bd9c,OK,11176,HDD
1540416710042211907,disk_drive,scsi-35000cca25335bd9c,OK,11176,HDD
1540412015575326713,disk_drive,scsi-35000cca25335bd9c,OK,11176,HDD
1540466105135810188,disk_drive,scsi-35000cca25335bd9c,OK,11176,HDD
1540422292733569851,disk_drive,scsi-35000cca25335bd9c,OK,11176,HDD
1540421387115310537,disk_drive,scsi-35000cca25335bd9c,OK,11176,HDD
1540419470187263219,disk_drive,scsi-35000cca25335bd9c,OK,11176,HDD
1540465257786454028,disk_drive,scsi-35000cca25335bd9c,OK,11176,HDD
1540466767593809273,disk_drive,scsi-35000cca25335bd9c,OK,11176,HDD
1540406071343982091,disk_drive,scsi-35000cca25335bd9c,OK,11176,HDD
1540465422665548143,disk_drive,scsi-35000cca25335bd9c,OK,11176,HDD
1540424821447483600,disk_drive,scsi-35000cca25335bd9c,OK,11176,HDD
1540468055191142443,disk_drive,scsi-35000cca25335bd9c,OK,11176,HDD
1540424502181968673,disk_drive,scsi-35000cca25335bd9c,OK,11176,HDD
1540418735612618244,disk_drive,scsi-35000cca25335bd9c,OK,11176,HDD
1540425592404467995,disk_drive,scsi-35000cca25335bd9c,OK,11176,HDD
1540424192022469774,disk_drive,scsi-35000cca25335bd9c,OK,11176,HDD
1540423070642768384,disk_drive,scsi-35000cca25335bd9c,OK,11176,HDD
1540467077954173813,disk_drive,scsi-35000cca25335bd9c,OK,11176,HDD
1540405012971984900,disk_drive,scsi-35000cca25335bd9c,OK,11176,HDD
1540417487356814498,disk_drive,scsi-35000cca25335bd9c,OK,11176,HDD
1540417187493423646,disk_drive,scsi-35000cca25335bd9c,OK,11176,HDD
1540425760739935032,disk_drive,scsi-35000cca25335bd9c,OK,11176,HDD
1540419028068522065,disk_drive,scsi-35000cca25335bd9c,OK,11176,HDD
1540416080346079375,disk_drive,scsi-35000cca25335bd9c,OK,11176,HDD
1540411376797311364,disk_drive,scsi-35000cca25335bd9c,OK,11176,HDD
1540466285052072152,disk_drive,scsi-35000cca25335bd9c,OK,11176,HDD
1540421694205804363,disk_drive,scsi-35000cca25335bd9c,OK,11176,HDD
1540420063405168147,disk_drive,scsi-35000cca25335bd9c,OK,11176,HDD
1540467888695326497,disk_drive,scsi-35000cca25335bd9c,OK,11176,HDD
1540420792954932219,disk_drive,scsi-35000cca25335bd9c,OK,11176,HDD
1540419320895240650,disk_drive,scsi-35000cca25335bd9c,OK,11176,HDD
1540415086332821476,disk_drive,scsi-35000cca25335bd9c,OK,11176,HDD
1540410259582971427,disk_drive,scsi-35000cca25335bd9c,OK,11176,HDD
1540418151686904253,disk_drive,scsi-35000cca25335bd9c,OK,11176,HDD
1540416390574779648,disk_drive,scsi-35000cca25335bd9c,OK,11176,HDD
1540408613902670665,disk_drive,scsi-35000cca25335bd9c,OK,11176,HDD
1540404226697603341,disk_drive,scsi-35000cca25335bd9c,OK,11176,HDD
1540422883894951061,disk_drive,scsi-35000cca25335bd9c,OK,11176,HDD
1540406435264452126,disk_drive,scsi-35000cca25335bd9c,OK,11176,HDD
1540467589211665514,disk_drive,scsi-35000cca25335bd9c,OK,11176,HDD
1540466610369099864,disk_drive,scsi-35000cca25335bd9c,OK,11176,HDD
1540405187130385650,disk_drive,scsi-35000cca25335bd9c,OK,11176,HDD
1540420939351029612,disk_drive,scsi-35000cca25335bd9c,OK,11176,HDD
1540414554984221215,disk_drive,scsi-35000cca25335bd9c,OK,11176,HDD
1540423232723699159,disk_drive,scsi-35000cca25335bd9c,OK,11176,HDD
1540465594199025558,disk_drive,scsi-35000cca25335bd9c,OK,11176,HDD
1540418297602485766,disk_drive,scsi-35000cca25335bd9c,OK,11176,HDD
1540418882207413162,disk_drive,scsi-35000cca25335bd9c,OK,11176,HDD
1540414258767267132,disk_drive,scsi-35000cca25335bd9c,OK,11176,HDD
1540409623183065530,disk_drive,scsi-35000cca25335bd9c,OK,11176,HDD
1540459121385576889,disk_drive,scsi-35000cca25335bd9c,OK,11176,HDD
1540413871521620494,disk_drive,scsi-35000cca25335bd9c,OK,11176,HDD
1540411548528451580,disk_drive,scsi-35000cca25335bd9c,OK,11176,HDD
1540409775217393796,disk_drive,scsi-35000cca25335bd9c,OK,11176,HDD
1540466942238291755,disk_drive,scsi-35000cca25335bd9c,OK,11176,HDD
1540414634920054993,disk_drive,scsi-35000cca25335bd9c,OK,11176,HDD
1540467765131340713,disk_drive,scsi-35000cca25335bd9c,OK,11176,HDD
1540465612193338186,disk_drive,scsi-35000cca25335bd9c,OK,11176,HDD
1540413905409341786,disk_drive,scsi-35000cca25335bd9c,OK,11176,HDD
1540414422301113402,disk_drive,scsi-35000cca25335bd9c,OK,11176,HDD
1540469533349345826,disk_drive,scsi-35000cca25335bd9c,OK,11176,HDD
1540411705626831554,disk_drive,scsi-35000cca25335bd9c,OK,11176,HDD
1540413012928905195,disk_drive,scsi-35000cca25335bd9c,OK,11176,HDD
1540468558734966321,disk_drive,scsi-35000cca25335bd9c,OK,11176,HDD
1540467110012019922,disk_drive,scsi-35000cca25335bd9c,OK,11176,HDD
1540414740373668687,disk_drive,scsi-35000cca25335bd9c,OK,11176,HDD
1540412866694481410,disk_drive,scsi-35000cca25335bd9c,OK,11176,HDD
1540470267835838645,disk_drive,scsi-35000cca25335bd9c,OK,11176,HDD
1540414487622184539,disk_drive,scsi-35000cca25335bd9c,OK,11176,HDD
1540414342043187152,disk_drive,scsi-35000cca25335bd9c,OK,11176,HDD
1540412814252388207,disk_drive,scsi-35000cca25335bd9c,OK,11176,HDD
1540472492797683637,disk_drive,scsi-35000cca25335bd9c,OK,11176,HDD
1540413307166309971,disk_drive,scsi-35000cca25335bd9c,OK,11176,HDD
1540424389208121356,disk_drive,scsi-35000cca25335bd9c,OK,11176,HDD
1540467257563142150,disk_drive,scsi-35000cca25335bd9c,OK,11176,HDD
1540469974271548381,disk_drive,scsi-35000cca25335bd9c,OK,11176,HDD
1540467924028128160,disk_drive,scsi-35000cca25335bd9c,OK,11176,HDD
1540425960419292753,disk_drive,scsi-35000cca25335bd9c,OK,11176,HDD
1540410739298430470,disk_drive,scsi-35000cca25335bd9c,OK,11176,HDD
1540422718999617867,disk_drive,scsi-35000cca25335bd9c,OK,11176,HDD
1540459419920621911,disk_drive,scsi-35000cca25335bd9c,OK,11176,HDD
1540425808379602690,disk_drive,scsi-35000cca25335bd9c,OK,11176,HDD
1540466786520550584,disk_drive,scsi-35000cca25335bd9c,OK,11176,HDD
1540471303756402635,disk_drive,scsi-35000cca25335bd9c,OK,11176,HDD
1540423075366740993,disk_drive,scsi-35000cca25335bd9c,OK,11176,HDD
1540470865243941474,disk_drive,scsi-35000cca25335bd9c,OK,11176,HDD
1540425486337314689,disk_drive,scsi-35000cca25335bd9c,OK,11176,HDD
1540471011389465925,disk_drive,scsi-35000cca25335bd9c,OK,11176,HDD
1540470718475615666,disk_drive,scsi-35000cca25335bd9c,OK,11176,HDD
1540466126659347373,disk_drive,scsi-35000cca25335bd9c,OK,11176,HDD
1540423572559118574,disk_drive,scsi-35000cca25335bd9c,OK,11176,HDD
1540417372329650621,disk_drive,scsi-35000cca25335bd9c,OK,11176,HDD
1540471598890812127,disk_drive,scsi-35000cca25335bd9c,OK,11176,HDD
1540413613798763828,disk_drive,scsi-35000cca25335bd9c,OK,11176,HDD
1540466296229483438,disk_drive,scsi-35000cca25335bd9c,OK,11176,HDD
1540408744930664024,disk_drive,scsi-35000cca25335bd9c,OK,11176,HDD
1540423914509472279,disk_drive,scsi-35000cca25335bd9c,OK,11176,HDD
1540410290960005470,disk_drive,scsi-35000cca25335bd9c,OK,11176,HDD
1540466638252025438,disk_drive,scsi-35000cca25335bd9c,OK,11176,HDD
1540405827100457481,disk_drive,scsi-35000cca25335bd9c,OK,11176,HDD
1540466463380410699,disk_drive,scsi-35000cca25335bd9c,OK,11176,HDD
1540412719048286273,disk_drive,scsi-35000cca25335bd9c,OK,11176,HDD
1540404077496030747,disk_drive,scsi-35000cca25335bd9c,OK,11176,HDD
1540465258199022026,disk_drive,scsi-35000cca25335bd9c,OK,11176,HDD
1540408934793124566,disk_drive,scsi-35000cca25335bd9c,OK,11176,HDD
1540410583738817491,disk_drive,scsi-35000cca25335bd9c,OK,11176,HDD
1540472038622750398,disk_drive,scsi-35000cca25335bd9c,OK,11176,HDD
1540472187144006629,disk_drive,scsi-35000cca25335bd9c,OK,11176,HDD
1540414051357994716,disk_drive,scsi-35000cca25335bd9c,OK,11176,HDD
1540414915252987119,disk_drive,scsi-35000cca25335bd9c,OK,11176,HDD
1540425178640614558,disk_drive,scsi-35000cca25335bd9c,OK,11176,HDD
1540404983612359068,disk_drive,scsi-35000cca25335bd9c,OK,11176,HDD
1540423425583177663,disk_drive,scsi-35000cca25335bd9c,OK,11176,HDD
1540405311588179553,disk_drive,scsi-35000cca25335bd9c,OK,11176,HDD
1540425335383744769,disk_drive,scsi-35000cca25335bd9c,OK,11176,HDD
1540468402877268883,disk_drive,scsi-35000cca25335bd9c,OK,11176,HDD
1540415416649355133,disk_drive,scsi-35000cca25335bd9c,OK,11176,HDD
1540405349544185164,disk_drive,scsi-35000cca25335bd9c,OK,11176,HDD
1540467433818314491,disk_drive,scsi-35000cca25335bd9c,OK,11176,HDD
1540471157353683512,disk_drive,scsi-35000cca25335bd9c,OK,11176,HDD
1540470414797997247,disk_drive,scsi-35000cca25335bd9c,OK,11176,HDD
1540424695939472023,disk_drive,scsi-35000cca25335bd9c,OK,11176,HDD
1540468243787031496,disk_drive,scsi-35000cca25335bd9c,OK,11176,HDD
1540414574814294000,disk_drive,scsi-35000cca25335bd9c,OK,11176,HDD
1540415265579295295,disk_drive,scsi-35000cca25335bd9c,OK,11176,HDD
1540412229385544183,disk_drive,scsi-35000cca25335bd9c,OK,11176,HDD
1540411083612464614,disk_drive,scsi-35000cca25335bd9c,OK,11176,HDD
1540465780631405474,disk_drive,scsi-35000cca25335bd9c,OK,11176,HDD
1540416103468497371,disk_drive,scsi-35000cca25335bd9c,OK,11176,HDD
1540468870498032514,disk_drive,scsi-35000cca25335bd9c,OK,11176,HDD
1540417078342323143,disk_drive,scsi-35000cca25335bd9c,OK,11176,HDD
1540416740006218555,disk_drive,scsi-35000cca25335bd9c,OK,11176,HDD
1540465430846477747,disk_drive,scsi-35000cca25335bd9c,OK,11176,HDD
1540413106558479208,disk_drive,scsi-35000cca25335bd9c,OK,11176,HDD
1540468708553454533,disk_drive,scsi-35000cca25335bd9c,OK,11176,HDD
1540425016955484080,disk_drive,scsi-35000cca25335bd9c,OK,11176,HDD
1540469244456588127,disk_drive,scsi-35000cca25335bd9c,OK,11176,HDD
1540469827661221169,disk_drive,scsi-35000cca25335bd9c,OK,11176,HDD
1540426124045458763,disk_drive,scsi-35000cca25335bd9c,OK,11176,HDD
1540405711519087626,disk_drive,scsi-35000cca25335bd9c,OK,11176,HDD
1540409937938797882,disk_drive,scsi-35000cca25335bd9c,OK,11176,HDD
1540404383024364625,disk_drive,scsi-35000cca25335bd9c,OK,11176,HDD
1540409130830921534,disk_drive,scsi-35000cca25335bd9c,OK,11176,HDD
1540469679788978067,disk_drive,scsi-35000cca25335bd9c,OK,11176,HDD
1540413740569202857,disk_drive,scsi-35000cca25335bd9c,OK,11176,HDD
1540411876244269483,disk_drive,scsi-35000cca25335bd9c,OK,11176,HDD
1540413759260184122,disk_drive,scsi-35000cca25335bd9c,OK,11176,HDD
1540414275348689681,disk_drive,scsi-35000cca25335bd9c,OK,11176,HDD
1540471745484375190,disk_drive,scsi-35000cca25335bd9c,OK,11176,HDD
1540412573094023615,disk_drive,scsi-35000cca25335bd9c,OK,11176,HDD
1540410113165886569,disk_drive,scsi-35000cca25335bd9c,OK,11176,HDD
1540422902872640378,disk_drive,scsi-35000cca25335bd9c,OK,11176,HDD
1540471450777724723,disk_drive,scsi-35000cca25335bd9c,OK,11176,HDD
1540415940559593387,disk_drive,scsi-35000cca25335bd9c,OK,11176,HDD
1540412357814655932,disk_drive,scsi-35000cca25335bd9c,OK,11176,HDD
1540411402139074560,disk_drive,scsi-35000cca25335bd9c,OK,11176,HDD
1540459274364289463,disk_drive,scsi-35000cca25335bd9c,OK,11176,HDD
1540411256512621469,disk_drive,scsi-35000cca25335bd9c,OK,11176,HDD
1540410905858677795,disk_drive,scsi-35000cca25335bd9c,OK,11176,HDD
1540468096163492827,disk_drive,scsi-35000cca25335bd9c,OK,11176,HDD
1540414780727255576,disk_drive,scsi-35000cca25335bd9c,OK,11176,HDD
1540415582741356462,disk_drive,scsi-35000cca25335bd9c,OK,11176,HDD
1540423740949123733,disk_drive,scsi-35000cca25335bd9c,OK,11176,HDD
1540424061612675335,disk_drive,scsi-35000cca25335bd9c,OK,11176,HDD
1540415093051952061,disk_drive,scsi-35000cca25335bd9c,OK,11176,HDD
1540405146458147411,disk_drive,scsi-35000cca25335bd9c,OK,11176,HDD
1540417224440987168,disk_drive,scsi-35000cca25335bd9c,OK,11176,HDD
1540425650346063383,disk_drive,scsi-35000cca25335bd9c,OK,11176,HDD
1540413158764209878,disk_drive,scsi-35000cca25335bd9c,OK,11176,HDD
1540423245433122800,disk_drive,scsi-35000cca25335bd9c,OK,11176,HDD
1540412058110377853,disk_drive,scsi-35000cca25335bd9c,OK,11176,HDD
1540424219473073481,disk_drive,scsi-35000cca25335bd9c,OK,11176,HDD
1540406071760370205,disk_drive,scsi-35000cca25335bd9c,OK,11176,HDD
1540414095413263470,disk_drive,scsi-35000cca25335bd9c,OK,11176,HDD
1540472339110341144,disk_drive,scsi-35000cca25335bd9c,OK,11176,HDD
1540472638399719597,disk_drive,scsi-35000cca25335bd9c,OK,11176,HDD
1540410436823387360,disk_drive,scsi-35000cca25335bd9c,OK,11176,HDD
1540412961076265008,disk_drive,scsi-35000cca25335bd9c,OK,11176,HDD
1540467617707399043,disk_drive,scsi-35000cca25335bd9c,OK,11176,HDD
1540405074928498998,disk_drive,scsi-35000cca25335bd9c,OK,11176,HDD
1540469099264443973,disk_drive,scsi-35000cca25335bd9c,OK,11176,HDD
1540409329546217790,disk_drive,scsi-35000cca25335bd9c,OK,11176,HDD
1540409476282147700,disk_drive,scsi-35000cca25335bd9c,OK,11176,HDD
1540414196260371240,disk_drive,scsi-35000cca25335bd9c,OK,11176,HDD
1540469389133200325,disk_drive,scsi-35000cca25335bd9c,OK,11176,HDD
1540424536389209646,disk_drive,scsi-35000cca25335bd9c,OK,11176,HDD
1540471891804634460,disk_drive,scsi-35000cca25335bd9c,OK,11176,HDD
1540416250923168851,disk_drive,scsi-35000cca25335bd9c,OK,11176,HDD
1540470564849907560,disk_drive,scsi-35000cca25335bd9c,OK,11176,HDD
1540404226871721906,disk_drive,scsi-35000cca25335bd9c,OK,11176,HDD
1540405565112226669,disk_drive,scsi-35000cca25335bd9c,OK,11176,HDD
1540416401581470074,disk_drive,scsi-35000cca25335bd9c,OK,11176,HDD
1540405187457634025,disk_drive,scsi-35000cca25335bd9c,OK,11176,HDD
1540413458627226970,disk_drive,scsi-35000cca25335bd9c,OK,11176,HDD
1540405980803884373,disk_drive,scsi-35000cca25335bd9c,OK,11176,HDD
1540415758356477904,disk_drive,scsi-35000cca25335bd9c,OK,11176,HDD
1540416920153277934,disk_drive,scsi-35000cca25335bd9c,OK,11176,HDD
1540422545029938566,disk_drive,scsi-35000cca25335bd9c,OK,11176,HDD
1540470120359410989,disk_drive,scsi-35000cca25335bd9c,OK,11176,HDD
1540465948590761218,disk_drive,scsi-35000cca25335bd9c,OK,11176,HDD
1540416566690868768,disk_drive,scsi-35000cca25335bd9c,OK,11176,HDD
1540424867946291830,disk_drive,scsi-35000cca25335bd9c,OK,11176,HDD
1540412210936126955,disk_drive,scsi-35000cca25335bd9c,OK,11176,HDD
1540461828255935059,disk_drive,scsi-35000cca25335bd9c,OK,11176,HDD
1540409623183065530,disk_drive,scsi-35000cca25335bd9c,OK,11176,HDD
1540461975107586834,disk_drive,scsi-35000cca25335bd9c,OK,11176,HDD
1540465975125999949,disk_drive,scsi-35000cca25335bd9c,OK,11176,HDD
1540459121385576889,disk_drive,scsi-35000cca25335bd9c,OK,11176,HDD
1540413871521620494,disk_drive,scsi-35000cca25335bd9c,OK,11176,HDD
1540411548528451580,disk_drive,scsi-35000cca25335bd9c,OK,11176,HDD
1540461639268187346,disk_drive,scsi-35000cca25335bd9c,OK,11176,HDD
1540467296866624649,disk_drive,scsi-35000cca25335bd9c,OK,11176,HDD
1540468037212940020,disk_drive,scsi-35000cca25335bd9c,OK,11176,HDD
1540409775217393796,disk_drive,scsi-35000cca25335bd9c,OK,11176,HDD
1540466942238291755,disk_drive,scsi-35000cca25335bd9c,OK,11176,HDD
1540414634920054993,disk_drive,scsi-35000cca25335bd9c,OK,11176,HDD
1540467765131340713,disk_drive,scsi-35000cca25335bd9c,OK,11176,HDD
1540466274206671936,disk_drive,scsi-35000cca25335bd9c,OK,11176,HDD
1540465612193338186,disk_drive,scsi-35000cca25335bd9c,OK,11176,HDD
1540464654436028769,disk_drive,scsi-35000cca25335bd9c,OK,11176,HDD
1540413905409341786,disk_drive,scsi-35000cca25335bd9c,OK,11176,HDD
1540462792322079533,disk_drive,scsi-35000cca25335bd9c,OK,11176,HDD
1540414422301113402,disk_drive,scsi-35000cca25335bd9c,OK,11176,HDD
1540469533349345826,disk_drive,scsi-35000cca25335bd9c,OK,11176,HDD
1540411705626831554,disk_drive,scsi-35000cca25335bd9c,OK,11176,HDD
1540467149178322674,disk_drive,scsi-35000cca25335bd9c,OK,11176,HDD
1540413012928905195,disk_drive,scsi-35000cca25335bd9c,OK,11176,HDD
1540468558734966321,disk_drive,scsi-35000cca25335bd9c,OK,11176,HDD
1540467110012019922,disk_drive,scsi-35000cca25335bd9c,OK,11176,HDD
1540465747556533404,disk_drive,scsi-35000cca25335bd9c,OK,11176,HDD
1540414740373668687,disk_drive,scsi-35000cca25335bd9c,OK,11176,HDD
1540412866694481410,disk_drive,scsi-35000cca25335bd9c,OK,11176,HDD
1540470267835838645,disk_drive,scsi-35000cca25335bd9c,OK,11176,HDD
1540414487622184539,disk_drive,scsi-35000cca25335bd9c,OK,11176,HDD
1540466418400016279,disk_drive,scsi-35000cca25335bd9c,OK,11176,HDD
1540414342043187152,disk_drive,scsi-35000cca25335bd9c,OK,11176,HDD
1540462940137923937,disk_drive,scsi-35000cca25335bd9c,OK,11176,HDD
1540412814252388207,disk_drive,scsi-35000cca25335bd9c,OK,11176,HDD
1540472492797683637,disk_drive,scsi-35000cca25335bd9c,OK,11176,HDD
1540467745551550664,disk_drive,scsi-35000cca25335bd9c,OK,11176,HDD
1540413307166309971,disk_drive,scsi-35000cca25335bd9c,OK,11176,HDD
1540424389208121356,disk_drive,scsi-35000cca25335bd9c,OK,11176,HDD
1540467257563142150,disk_drive,scsi-35000cca25335bd9c,OK,11176,HDD
1540469974271548381,disk_drive,scsi-35000cca25335bd9c,OK,11176,HDD
1540467924028128160,disk_drive,scsi-35000cca25335bd9c,OK,11176,HDD
1540425960419292753,disk_drive,scsi-35000cca25335bd9c,OK,11176,HDD
1540410739298430470,disk_drive,scsi-35000cca25335bd9c,OK,11176,HDD
1540422718999617867,disk_drive,scsi-35000cca25335bd9c,OK,11176,HDD
1540459419920621911,disk_drive,scsi-35000cca25335bd9c,OK,11176,HDD
1540425808379602690,disk_drive,scsi-35000cca25335bd9c,OK,11176,HDD
1540466786520550584,disk_drive,scsi-35000cca25335bd9c,OK,11176,HDD
1540471303756402635,disk_drive,scsi-35000cca25335bd9c,OK,11176,HDD
1540423075366740993,disk_drive,scsi-35000cca25335bd9c,OK,11176,HDD
1540470865243941474,disk_drive,scsi-35000cca25335bd9c,OK,11176,HDD
1540425486337314689,disk_drive,scsi-35000cca25335bd9c,OK,11176,HDD
1540471011389465925,disk_drive,scsi-35000cca25335bd9c,OK,11176,HDD
1540470718475615666,disk_drive,scsi-35000cca25335bd9c,OK,11176,HDD
1540464223080211594,disk_drive,scsi-35000cca25335bd9c,OK,11176,HDD
1540466126659347373,disk_drive,scsi-35000cca25335bd9c,OK,11176,HDD
1540423572559118574,disk_drive,scsi-35000cca25335bd9c,OK,11176,HDD
1540417372329650621,disk_drive,scsi-35000cca25335bd9c,OK,11176,HDD
1540461485509817013,disk_drive,scsi-35000cca25335bd9c,OK,11176,HDD
1540471598890812127,disk_drive,scsi-35000cca25335bd9c,OK,11176,HDD
1540464944421684194,disk_drive,scsi-35000cca25335bd9c,OK,11176,HDD
1540413613798763828,disk_drive,scsi-35000cca25335bd9c,OK,11176,HDD
1540466296229483438,disk_drive,scsi-35000cca25335bd9c,OK,11176,HDD
1540408744930664024,disk_drive,scsi-35000cca25335bd9c,OK,11176,HDD
1540423914509472279,disk_drive,scsi-35000cca25335bd9c,OK,11176,HDD
1540410290960005470,disk_drive,scsi-35000cca25335bd9c,OK,11176,HDD
1540466638252025438,disk_drive,scsi-35000cca25335bd9c,OK,11176,HDD
1540405827100457481,disk_drive,scsi-35000cca25335bd9c,OK,11176,HDD
1540466463380410699,disk_drive,scsi-35000cca25335bd9c,OK,11176,HDD
1540412719048286273,disk_drive,scsi-35000cca25335bd9c,OK,11176,HDD
1540404077496030747,disk_drive,scsi-35000cca25335bd9c,OK,11176,HDD
1540465258199022026,disk_drive,scsi-35000cca25335bd9c,OK,11176,HDD
1540408934793124566,disk_drive,scsi-35000cca25335bd9c,OK,11176,HDD
1540410583738817491,disk_drive,scsi-35000cca25335bd9c,OK,11176,HDD
1540472038622750398,disk_drive,scsi-35000cca25335bd9c,OK,11176,HDD
1540472187144006629,disk_drive,scsi-35000cca25335bd9c,OK,11176,HDD
1540414051357994716,disk_drive,scsi-35000cca25335bd9c,OK,11176,HDD
1540414915252987119,disk_drive,scsi-35000cca25335bd9c,OK,11176,HDD
1540425178640614558,disk_drive,scsi-35000cca25335bd9c,OK,11176,HDD
1540465382930837403,disk_drive,scsi-35000cca25335bd9c,OK,11176,HDD
1540404983612359068,disk_drive,scsi-35000cca25335bd9c,OK,11176,HDD
1540423425583177663,disk_drive,scsi-35000cca25335bd9c,OK,11176,HDD
1540405311588179553,disk_drive,scsi-35000cca25335bd9c,OK,11176,HDD
1540425335383744769,disk_drive,scsi-35000cca25335bd9c,OK,11176,HDD
1540468402877268883,disk_drive,scsi-35000cca25335bd9c,OK,11176,HDD
1540415416649355133,disk_drive,scsi-35000cca25335bd9c,OK,11176,HDD
1540405349544185164,disk_drive,scsi-35000cca25335bd9c,OK,11176,HDD
1540467433818314491,disk_drive,scsi-35000cca25335bd9c,OK,11176,HDD
1540471157353683512,disk_drive,scsi-35000cca25335bd9c,OK,11176,HDD
1540470414797997247,disk_drive,scsi-35000cca25335bd9c,OK,11176,HDD
1540424695939472023,disk_drive,scsi-35000cca25335bd9c,OK,11176,HDD
1540468243787031496,disk_drive,scsi-35000cca25335bd9c,OK,11176,HDD
1540459866342208933,disk_drive,scsi-35000cca25335bd9c,OK,11176,HDD
1540463097346892456,disk_drive,scsi-35000cca25335bd9c,OK,11176,HDD
1540414574814294000,disk_drive,scsi-35000cca25335bd9c,OK,11176,HDD
1540466564010772739,disk_drive,scsi-35000cca25335bd9c,OK,11176,HDD
1540415265579295295,disk_drive,scsi-35000cca25335bd9c,OK,11176,HDD
1540412229385544183,disk_drive,scsi-35000cca25335bd9c,OK,11176,HDD
1540411083612464614,disk_drive,scsi-35000cca25335bd9c,OK,11176,HDD
1540465780631405474,disk_drive,scsi-35000cca25335bd9c,OK,11176,HDD
1540416103468497371,disk_drive,scsi-35000cca25335bd9c,OK,11176,HDD
1540468870498032514,disk_drive,scsi-35000cca25335bd9c,OK,11176,HDD
1540417078342323143,disk_drive,scsi-35000cca25335bd9c,OK,11176,HDD
1540465091027415071,disk_drive,scsi-35000cca25335bd9c,OK,11176,HDD
1540416740006218555,disk_drive,scsi-35000cca25335bd9c,OK,11176,HDD
1540465430846477747,disk_drive,scsi-35000cca25335bd9c,OK,11176,HDD
1540413106558479208,disk_drive,scsi-35000cca25335bd9c,OK,11176,HDD
1540468708553454533,disk_drive,scsi-35000cca25335bd9c,OK,11176,HDD
1540425016955484080,disk_drive,scsi-35000cca25335bd9c,OK,11176,HDD
1540469244456588127,disk_drive,scsi-35000cca25335bd9c,OK,11176,HDD
1540469827661221169,disk_drive,scsi-35000cca25335bd9c,OK,11176,HDD
1540426124045458763,disk_drive,scsi-35000cca25335bd9c,OK,11176,HDD
1540405711519087626,disk_drive,scsi-35000cca25335bd9c,OK,11176,HDD
1540467891684975578,disk_drive,scsi-35000cca25335bd9c,OK,11176,HDD
1540409937938797882,disk_drive,scsi-35000cca25335bd9c,OK,11176,HDD
1540465236818824169,disk_drive,scsi-35000cca25335bd9c,OK,11176,HDD
1540404383024364625,disk_drive,scsi-35000cca25335bd9c,OK,11176,HDD
1540465824813808873,disk_drive,scsi-35000cca25335bd9c,OK,11176,HDD
1540409130830921534,disk_drive,scsi-35000cca25335bd9c,OK,11176,HDD
1540469679788978067,disk_drive,scsi-35000cca25335bd9c,OK,11176,HDD
1540463443981065047,disk_drive,scsi-35000cca25335bd9c,OK,11176,HDD
1540413740569202857,disk_drive,scsi-35000cca25335bd9c,OK,11176,HDD
1540460966170787152,disk_drive,scsi-35000cca25335bd9c,OK,11176,HDD
1540411876244269483,disk_drive,scsi-35000cca25335bd9c,OK,11176,HDD
1540413759260184122,disk_drive,scsi-35000cca25335bd9c,OK,11176,HDD
1540414275348689681,disk_drive,scsi-35000cca25335bd9c,OK,11176,HDD
1540471745484375190,disk_drive,scsi-35000cca25335bd9c,OK,11176,HDD
1540412573094023615,disk_drive,scsi-35000cca25335bd9c,OK,11176,HDD
1540465530227465411,disk_drive,scsi-35000cca25335bd9c,OK,11176,HDD
1540464798067550328,disk_drive,scsi-35000cca25335bd9c,OK,11176,HDD
1540464509033779956,disk_drive,scsi-35000cca25335bd9c,OK,11176,HDD
1540410113165886569,disk_drive,scsi-35000cca25335bd9c,OK,11176,HDD
1540422902872640378,disk_drive,scsi-35000cca25335bd9c,OK,11176,HDD
1540460534599669398,disk_drive,scsi-35000cca25335bd9c,OK,11176,HDD
1540471450777724723,disk_drive,scsi-35000cca25335bd9c,OK,11176,HDD
1540415940559593387,disk_drive,scsi-35000cca25335bd9c,OK,11176,HDD
1540467002008261060,disk_drive,scsi-35000cca25335bd9c,OK,11176,HDD
1540465677655602684,disk_drive,scsi-35000cca25335bd9c,OK,11176,HDD
1540412357814655932,disk_drive,scsi-35000cca25335bd9c,OK,11176,HDD
1540411402139074560,disk_drive,scsi-35000cca25335bd9c,OK,11176,HDD
1540464051980456298,disk_drive,scsi-35000cca25335bd9c,OK,11176,HDD
1540462628312689168,disk_drive,scsi-35000cca25335bd9c,OK,11176,HDD
1540459274364289463,disk_drive,scsi-35000cca25335bd9c,OK,11176,HDD
1540411256512621469,disk_drive,scsi-35000cca25335bd9c,OK,11176,HDD
1540410905858677795,disk_drive,scsi-35000cca25335bd9c,OK,11176,HDD
1540468096163492827,disk_drive,scsi-35000cca25335bd9c,OK,11176,HDD
1540414780727255576,disk_drive,scsi-35000cca25335bd9c,OK,11176,HDD
1540415582741356462,disk_drive,scsi-35000cca25335bd9c,OK,11176,HDD
1540423740949123733,disk_drive,scsi-35000cca25335bd9c,OK,11176,HDD
1540424061612675335,disk_drive,scsi-35000cca25335bd9c,OK,11176,HDD
1540415093051952061,disk_drive,scsi-35000cca25335bd9c,OK,11176,HDD
1540405146458147411,disk_drive,scsi-35000cca25335bd9c,OK,11176,HDD
1540417224440987168,disk_drive,scsi-35000cca25335bd9c,OK,11176,HDD
1540425650346063383,disk_drive,scsi-35000cca25335bd9c,OK,11176,HDD
1540466854985763123,disk_drive,scsi-35000cca25335bd9c,OK,11176,HDD
1540413158764209878,disk_drive,scsi-35000cca25335bd9c,OK,11176,HDD
1540466708974821580,disk_drive,scsi-35000cca25335bd9c,OK,11176,HDD
1540423245433122800,disk_drive,scsi-35000cca25335bd9c,OK,11176,HDD
1540412058110377853,disk_drive,scsi-35000cca25335bd9c,OK,11176,HDD
1540424219473073481,disk_drive,scsi-35000cca25335bd9c,OK,11176,HDD
1540406071760370205,disk_drive,scsi-35000cca25335bd9c,OK,11176,HDD
1540414095413263470,disk_drive,scsi-35000cca25335bd9c,OK,11176,HDD
1540472339110341144,disk_drive,scsi-35000cca25335bd9c,OK,11176,HDD
1540463893652636123,disk_drive,scsi-35000cca25335bd9c,OK,11176,HDD
1540472638399719597,disk_drive,scsi-35000cca25335bd9c,OK,11176,HDD
1540410436823387360,disk_drive,scsi-35000cca25335bd9c,OK,11176,HDD
1540461303710218033,disk_drive,scsi-35000cca25335bd9c,OK,11176,HDD
1540461127979322690,disk_drive,scsi-35000cca25335bd9c,OK,11176,HDD
1540412961076265008,disk_drive,scsi-35000cca25335bd9c,OK,11176,HDD
1540460623670098671,disk_drive,scsi-35000cca25335bd9c,OK,11176,HDD
1540462132290686713,disk_drive,scsi-35000cca25335bd9c,OK,11176,HDD
1540467617707399043,disk_drive,scsi-35000cca25335bd9c,OK,11176,HDD
1540460811602179540,disk_drive,scsi-35000cca25335bd9c,OK,11176,HDD
1540462473988712616,disk_drive,scsi-35000cca25335bd9c,OK,11176,HDD
1540405074928498998,disk_drive,scsi-35000cca25335bd9c,OK,11176,HDD
1540469099264443973,disk_drive,scsi-35000cca25335bd9c,OK,11176,HDD
1540409329546217790,disk_drive,scsi-35000cca25335bd9c,OK,11176,HDD
1540409476282147700,disk_drive,scsi-35000cca25335bd9c,OK,11176,HDD
1540459713452488560,disk_drive,scsi-35000cca25335bd9c,OK,11176,HDD
1540414196260371240,disk_drive,scsi-35000cca25335bd9c,OK,11176,HDD
1540469389133200325,disk_drive,scsi-35000cca25335bd9c,OK,11176,HDD
1540463745943281572,disk_drive,scsi-35000cca25335bd9c,OK,11176,HDD
1540463264478732108,disk_drive,scsi-35000cca25335bd9c,OK,11176,HDD
1540424536389209646,disk_drive,scsi-35000cca25335bd9c,OK,11176,HDD
1540471891804634460,disk_drive,scsi-35000cca25335bd9c,OK,11176,HDD
1540416250923168851,disk_drive,scsi-35000cca25335bd9c,OK,11176,HDD
1540470564849907560,disk_drive,scsi-35000cca25335bd9c,OK,11176,HDD
1540463599996482191,disk_drive,scsi-35000cca25335bd9c,OK,11176,HDD
1540404226871721906,disk_drive,scsi-35000cca25335bd9c,OK,11176,HDD
1540467443699610465,disk_drive,scsi-35000cca25335bd9c,OK,11176,HDD
1540405565112226669,disk_drive,scsi-35000cca25335bd9c,OK,11176,HDD
1540416401581470074,disk_drive,scsi-35000cca25335bd9c,OK,11176,HDD
1540467592931006251,disk_drive,scsi-35000cca25335bd9c,OK,11176,HDD
1540405187457634025,disk_drive,scsi-35000cca25335bd9c,OK,11176,HDD
1540413458627226970,disk_drive,scsi-35000cca25335bd9c,OK,11176,HDD
1540405980803884373,disk_drive,scsi-35000cca25335bd9c,OK,11176,HDD
1540462297426709648,disk_drive,scsi-35000cca25335bd9c,OK,11176,HDD
1540415758356477904,disk_drive,scsi-35000cca25335bd9c,OK,11176,HDD
1540416920153277934,disk_drive,scsi-35000cca25335bd9c,OK,11176,HDD
1540466128900136094,disk_drive,scsi-35000cca25335bd9c,OK,11176,HDD
1540422545029938566,disk_drive,scsi-35000cca25335bd9c,OK,11176,HDD
1540470120359410989,disk_drive,scsi-35000cca25335bd9c,OK,11176,HDD
1540465948590761218,disk_drive,scsi-35000cca25335bd9c,OK,11176,HDD
1540416566690868768,disk_drive,scsi-35000cca25335bd9c,OK,11176,HDD
1540424867946291830,disk_drive,scsi-35000cca25335bd9c,OK,11176,HDD
1540459566245798175,disk_drive,scsi-35000cca25335bd9c,OK,11176,HDD
1540412210936126955,disk_drive,scsi-35000cca25335bd9c,OK,11176,HDD
1540422710933016093,disk_drive,scsi-35000cca25335bd9c,OK,11176,HDD
1540466917666064056,disk_drive,scsi-35000cca25335bd9c,OK,11176,HDD
1540410407075218631,disk_drive,scsi-35000cca25335bd9c,OK,11176,HDD
1540414882062293885,disk_drive,scsi-35000cca25335bd9c,OK,11176,HDD
1540413871162082640,disk_drive,scsi-35000cca25335bd9c,OK,11176,HDD
1540425435584575675,disk_drive,scsi-35000cca25335bd9c,OK,11176,HDD
1540408925269407787,disk_drive,scsi-35000cca25335bd9c,OK,11176,HDD
1540420501848253693,disk_drive,scsi-35000cca25335bd9c,OK,11176,HDD
1540411231439008046,disk_drive,scsi-35000cca25335bd9c,OK,11176,HDD
1540406879079025164,disk_drive,scsi-35000cca25335bd9c,OK,11176,HDD
1540407737916498273,disk_drive,scsi-35000cca25335bd9c,OK,11176,HDD
1540406220524727058,disk_drive,scsi-35000cca25335bd9c,OK,11176,HDD
1540414406444586417,disk_drive,scsi-35000cca25335bd9c,OK,11176,HDD
1540426067966429996,disk_drive,scsi-35000cca25335bd9c,OK,11176,HDD
1540410702941823850,disk_drive,scsi-35000cca25335bd9c,OK,11176,HDD
1540416547875890466,disk_drive,scsi-35000cca25335bd9c,OK,11176,HDD
1540414713050488608,disk_drive,scsi-35000cca25335bd9c,OK,11176,HDD
1540420208970679478,disk_drive,scsi-35000cca25335bd9c,OK,11176,HDD
1540423559573957123,disk_drive,scsi-35000cca25335bd9c,OK,11176,HDD
1540416884896376792,disk_drive,scsi-35000cca25335bd9c,OK,11176,HDD
1540412190004970042,disk_drive,scsi-35000cca25335bd9c,OK,11176,HDD
1540462441533051062,disk_drive,scsi-35000cca25335bd9c,OK,11176,HDD
1540468682621319928,disk_drive,scsi-35000cca25335bd9c,OK,11176,HDD
1540418589124105223,disk_drive,scsi-35000cca25335bd9c,OK,11176,HDD
1540406581231171650,disk_drive,scsi-35000cca25335bd9c,OK,11176,HDD
1540424655738767278,disk_drive,scsi-35000cca25335bd9c,OK,11176,HDD
1540424356236937287,disk_drive,scsi-35000cca25335bd9c,OK,11176,HDD
1540411039538152839,disk_drive,scsi-35000cca25335bd9c,OK,11176,HDD
1540418005740280199,disk_drive,scsi-35000cca25335bd9c,OK,11176,HDD
1540424967899685651,disk_drive,scsi-35000cca25335bd9c,OK,11176,HDD
1540419174157875833,disk_drive,scsi-35000cca25335bd9c,OK,11176,HDD
1540415569647507751,disk_drive,scsi-35000cca25335bd9c,OK,11176,HDD
1540465776921980428,disk_drive,scsi-35000cca25335bd9c,OK,11176,HDD
1540415263344070912,disk_drive,scsi-35000cca25335bd9c,OK,11176,HDD
1540415411864580244,disk_drive,scsi-35000cca25335bd9c,OK,11176,HDD
1540468369322039181,disk_drive,scsi-35000cca25335bd9c,OK,11176,HDD
1540409458300754715,disk_drive,scsi-35000cca25335bd9c,OK,11176,HDD
1540423880604623753,disk_drive,scsi-35000cca25335bd9c,OK,11176,HDD
1540415905657356538,disk_drive,scsi-35000cca25335bd9c,OK,11176,HDD
1540463236012036958,disk_drive,scsi-35000cca25335bd9c,OK,11176,HDD
1540467735458496527,disk_drive,scsi-35000cca25335bd9c,OK,11176,HDD
1540465937631955367,disk_drive,scsi-35000cca25335bd9c,OK,11176,HDD
1540409604171002520,disk_drive,scsi-35000cca25335bd9c,OK,11176,HDD
1540417333439822344,disk_drive,scsi-35000cca25335bd9c,OK,11176,HDD
1540408744540386362,disk_drive,scsi-35000cca25335bd9c,OK,11176,HDD
1540409299315531774,disk_drive,scsi-35000cca25335bd9c,OK,11176,HDD
1540460963011606998,disk_drive,scsi-35000cca25335bd9c,OK,11176,HDD
1540462777712814383,disk_drive,scsi-35000cca25335bd9c,OK,11176,HDD
1540463869477082471,disk_drive,scsi-35000cca25335bd9c,OK,11176,HDD
1540404077054582793,disk_drive,scsi-35000cca25335bd9c,OK,11176,HDD
1540422460813584806,disk_drive,scsi-35000cca25335bd9c,OK,11176,HDD
1540409908137036523,disk_drive,scsi-35000cca25335bd9c,OK,11176,HDD
1540419620013574557,disk_drive,scsi-35000cca25335bd9c,OK,11176,HDD
1540466441432420690,disk_drive,scsi-35000cca25335bd9c,OK,11176,HDD
1540424039819269147,disk_drive,scsi-35000cca25335bd9c,OK,11176,HDD
1540423717370251241,disk_drive,scsi-35000cca25335bd9c,OK,11176,HDD
1540410865737321052,disk_drive,scsi-35000cca25335bd9c,OK,11176,HDD
1540420646558298277,disk_drive,scsi-35000cca25335bd9c,OK,11176,HDD
1540416243185513921,disk_drive,scsi-35000cca25335bd9c,OK,11176,HDD
1540462608371284447,disk_drive,scsi-35000cca25335bd9c,OK,11176,HDD
1540461118191422498,disk_drive,scsi-35000cca25335bd9c,OK,11176,HDD
1540462271359551202,disk_drive,scsi-35000cca25335bd9c,OK,11176,HDD
1540415735581582556,disk_drive,scsi-35000cca25335bd9c,OK,11176,HDD
1540425122862283060,disk_drive,scsi-35000cca25335bd9c,OK,11176,HDD
1540468535090597064,disk_drive,scsi-35000cca25335bd9c,OK,11176,HDD
1540419773116775017,disk_drive,scsi-35000cca25335bd9c,OK,11176,HDD
1540411522287940528,disk_drive,scsi-35000cca25335bd9c,OK,11176,HDD
1540467416448186090,disk_drive,scsi-35000cca25335bd9c,OK,11176,HDD
1540411674228694839,disk_drive,scsi-35000cca25335bd9c,OK,11176,HDD
1540409750912026498,disk_drive,scsi-35000cca25335bd9c,OK,11176,HDD
1540414088548069610,disk_drive,scsi-35000cca25335bd9c,OK,11176,HDD
1540463560716144831,disk_drive,scsi-35000cca25335bd9c,OK,11176,HDD
1540407037089463420,disk_drive,scsi-35000cca25335bd9c,OK,11176,HDD
1540422544605617222,disk_drive,scsi-35000cca25335bd9c,OK,11176,HDD
1540418443512026562,disk_drive,scsi-35000cca25335bd9c,OK,11176,HDD
1540420355262363701,disk_drive,scsi-35000cca25335bd9c,OK,11176,HDD
1540410552946156852,disk_drive,scsi-35000cca25335bd9c,OK,11176,HDD
1540467251580284794,disk_drive,scsi-35000cca25335bd9c,OK,11176,HDD
1540419918205063153,disk_drive,scsi-35000cca25335bd9c,OK,11176,HDD
1540417701933001655,disk_drive,scsi-35000cca25335bd9c,OK,11176,HDD
1540425288942361553,disk_drive,scsi-35000cca25335bd9c,OK,11176,HDD
1540417852468882689,disk_drive,scsi-35000cca25335bd9c,OK,11176,HDD
1540468215892157032,disk_drive,scsi-35000cca25335bd9c,OK,11176,HDD
1540411838132143061,disk_drive,scsi-35000cca25335bd9c,OK,11176,HDD
1540421085909931037,disk_drive,scsi-35000cca25335bd9c,OK,11176,HDD
1540410077762771272,disk_drive,scsi-35000cca25335bd9c,OK,11176,HDD
1540412335880566017,disk_drive,scsi-35000cca25335bd9c,OK,11176,HDD
1540404377384221906,disk_drive,scsi-35000cca25335bd9c,OK,11176,HDD
1540406726275871966,disk_drive,scsi-35000cca25335bd9c,OK,11176,HDD
1540421547872136809,disk_drive,scsi-35000cca25335bd9c,OK,11176,HDD
1540421234657380926,disk_drive,scsi-35000cca25335bd9c,OK,11176,HDD
1540417038484816305,disk_drive,scsi-35000cca25335bd9c,OK,11176,HDD
1540407908901548182,disk_drive,scsi-35000cca25335bd9c,OK,11176,HDD
1540423401533130975,disk_drive,scsi-35000cca25335bd9c,OK,11176,HDD
1540425907830703279,disk_drive,scsi-35000cca25335bd9c,OK,11176,HDD
1540461964843727166,disk_drive,scsi-35000cca25335bd9c,OK,11176,HDD
1540409111965795151,disk_drive,scsi-35000cca25335bd9c,OK,11176,HDD
1540416710042211907,disk_drive,scsi-35000cca25335bd9c,OK,11176,HDD
1540412015575326713,disk_drive,scsi-35000cca25335bd9c,OK,11176,HDD
1540463723110678398,disk_drive,scsi-35000cca25335bd9c,OK,11176,HDD
1540466105135810188,disk_drive,scsi-35000cca25335bd9c,OK,11176,HDD
1540460800156895867,disk_drive,scsi-35000cca25335bd9c,OK,11176,HDD
1540461633862014884,disk_drive,scsi-35000cca25335bd9c,OK,11176,HDD
1540422292733569851,disk_drive,scsi-35000cca25335bd9c,OK,11176,HDD
1540421387115310537,disk_drive,scsi-35000cca25335bd9c,OK,11176,HDD
1540419470187263219,disk_drive,scsi-35000cca25335bd9c,OK,11176,HDD
1540465257786454028,disk_drive,scsi-35000cca25335bd9c,OK,11176,HDD
1540466767593809273,disk_drive,scsi-35000cca25335bd9c,OK,11176,HDD
1540406071343982091,disk_drive,scsi-35000cca25335bd9c,OK,11176,HDD
1540463409089410334,disk_drive,scsi-35000cca25335bd9c,OK,11176,HDD
1540465422665548143,disk_drive,scsi-35000cca25335bd9c,OK,11176,HDD
1540462925034469711,disk_drive,scsi-35000cca25335bd9c,OK,11176,HDD
1540424821447483600,disk_drive,scsi-35000cca25335bd9c,OK,11176,HDD
1540468055191142443,disk_drive,scsi-35000cca25335bd9c,OK,11176,HDD
1540424502181968673,disk_drive,scsi-35000cca25335bd9c,OK,11176,HDD
1540418735612618244,disk_drive,scsi-35000cca25335bd9c,OK,11176,HDD
1540425592404467995,disk_drive,scsi-35000cca25335bd9c,OK,11176,HDD
1540424192022469774,disk_drive,scsi-35000cca25335bd9c,OK,11176,HDD
1540423070642768384,disk_drive,scsi-35000cca25335bd9c,OK,11176,HDD
1540467077954173813,disk_drive,scsi-35000cca25335bd9c,OK,11176,HDD
1540460623276867765,disk_drive,scsi-35000cca25335bd9c,OK,11176,HDD
1540405012971984900,disk_drive,scsi-35000cca25335bd9c,OK,11176,HDD
1540417487356814498,disk_drive,scsi-35000cca25335bd9c,OK,11176,HDD
1540417187493423646,disk_drive,scsi-35000cca25335bd9c,OK,11176,HDD
1540425760739935032,disk_drive,scsi-35000cca25335bd9c,OK,11176,HDD
1540419028068522065,disk_drive,scsi-35000cca25335bd9c,OK,11176,HDD
1540416080346079375,disk_drive,scsi-35000cca25335bd9c,OK,11176,HDD
1540461454516070565,disk_drive,scsi-35000cca25335bd9c,OK,11176,HDD
1540411376797311364,disk_drive,scsi-35000cca25335bd9c,OK,11176,HDD
1540466285052072152,disk_drive,scsi-35000cca25335bd9c,OK,11176,HDD
1540421694205804363,disk_drive,scsi-35000cca25335bd9c,OK,11176,HDD
1540420063405168147,disk_drive,scsi-35000cca25335bd9c,OK,11176,HDD
1540467888695326497,disk_drive,scsi-35000cca25335bd9c,OK,11176,HDD
1540420792954932219,disk_drive,scsi-35000cca25335bd9c,OK,11176,HDD
1540419320895240650,disk_drive,scsi-35000cca25335bd9c,OK,11176,HDD
1540461817583776938,disk_drive,scsi-35000cca25335bd9c,OK,11176,HDD
1540415086332821476,disk_drive,scsi-35000cca25335bd9c,OK,11176,HDD
1540410259582971427,disk_drive,scsi-35000cca25335bd9c,OK,11176,HDD
1540464022425586667,disk_drive,scsi-35000cca25335bd9c,OK,11176,HDD
1540418151686904253,disk_drive,scsi-35000cca25335bd9c,OK,11176,HDD
1540416390574779648,disk_drive,scsi-35000cca25335bd9c,OK,11176,HDD
1540408613902670665,disk_drive,scsi-35000cca25335bd9c,OK,11176,HDD
1540462112432768385,disk_drive,scsi-35000cca25335bd9c,OK,11176,HDD
1540404226697603341,disk_drive,scsi-35000cca25335bd9c,OK,11176,HDD
1540422883894951061,disk_drive,scsi-35000cca25335bd9c,OK,11176,HDD
1540463074941895473,disk_drive,scsi-35000cca25335bd9c,OK,11176,HDD
1540406435264452126,disk_drive,scsi-35000cca25335bd9c,OK,11176,HDD
1540467589211665514,disk_drive,scsi-35000cca25335bd9c,OK,11176,HDD
1540466610369099864,disk_drive,scsi-35000cca25335bd9c,OK,11176,HDD
1540405187130385650,disk_drive,scsi-35000cca25335bd9c,OK,11176,HDD
1540420939351029612,disk_drive,scsi-35000cca25335bd9c,OK,11176,HDD
1540414554984221215,disk_drive,scsi-35000cca25335bd9c,OK,11176,HDD
1540423232723699159,disk_drive,scsi-35000cca25335bd9c,OK,11176,HDD
1540465594199025558,disk_drive,scsi-35000cca25335bd9c,OK,11176,HDD
1540418297602485766,disk_drive,scsi-35000cca25335bd9c,OK,11176,HDD
1540461284335646920,disk_drive,scsi-35000cca25335bd9c,OK,11176,HDD
1540418882207413162,disk_drive,scsi-35000cca25335bd9c,OK,11176,HDD
1540414258767267132,disk_drive,scsi-35000cca25335bd9c,OK,11176,HDD
1540422710933016093,disk_drive,scsi-35000cca25335bd9c,OK,11176,HDD
1540466990853463859,disk_drive,scsi-35000cca25335bd9c,OK,11176,HDD
1540466917666064056,disk_drive,scsi-35000cca25335bd9c,OK,11176,HDD
1540467684573071301,disk_drive,scsi-35000cca25335bd9c,OK,11176,HDD
1540410407075218631,disk_drive,scsi-35000cca25335bd9c,OK,11176,HDD
1540414882062293885,disk_drive,scsi-35000cca25335bd9c,OK,11176,HDD
1540413871162082640,disk_drive,scsi-35000cca25335bd9c,OK,11176,HDD
1540473649967573104,disk_drive,scsi-35000cca25335bd9c,OK,11176,HDD
1540425435584575675,disk_drive,scsi-35000cca25335bd9c,OK,11176,HDD
1540472181700916699,disk_drive,scsi-35000cca25335bd9c,OK,11176,HDD
1540469763795698597,disk_drive,scsi-35000cca25335bd9c,OK,11176,HDD
1540469445059578978,disk_drive,scsi-35000cca25335bd9c,OK,11176,HDD
1540408925269407787,disk_drive,scsi-35000cca25335bd9c,OK,11176,HDD
1540420501848253693,disk_drive,scsi-35000cca25335bd9c,OK,11176,HDD
1540411231439008046,disk_drive,scsi-35000cca25335bd9c,OK,11176,HDD
1540406879079025164,disk_drive,scsi-35000cca25335bd9c,OK,11176,HDD
1540407737916498273,disk_drive,scsi-35000cca25335bd9c,OK,11176,HDD
1540406220524727058,disk_drive,scsi-35000cca25335bd9c,OK,11176,HDD
1540414406444586417,disk_drive,scsi-35000cca25335bd9c,OK,11176,HDD
1540426067966429996,disk_drive,scsi-35000cca25335bd9c,OK,11176,HDD
1540410702941823850,disk_drive,scsi-35000cca25335bd9c,OK,11176,HDD
1540416547875890466,disk_drive,scsi-35000cca25335bd9c,OK,11176,HDD
1540470858339161203,disk_drive,scsi-35000cca25335bd9c,OK,11176,HDD
1540414713050488608,disk_drive,scsi-35000cca25335bd9c,OK,11176,HDD
1540420208970679478,disk_drive,scsi-35000cca25335bd9c,OK,11176,HDD
1540423559573957123,disk_drive,scsi-35000cca25335bd9c,OK,11176,HDD
1540416884896376792,disk_drive,scsi-35000cca25335bd9c,OK,11176,HDD
1540412190004970042,disk_drive,scsi-35000cca25335bd9c,OK,11176,HDD
1540462441533051062,disk_drive,scsi-35000cca25335bd9c,OK,11176,HDD
1540468682621319928,disk_drive,scsi-35000cca25335bd9c,OK,11176,HDD
1540468658224898141,disk_drive,scsi-35000cca25335bd9c,OK,11176,HDD
1540418589124105223,disk_drive,scsi-35000cca25335bd9c,OK,11176,HDD
1540474717313320430,disk_drive,scsi-35000cca25335bd9c,OK,11176,HDD
1540406581231171650,disk_drive,scsi-35000cca25335bd9c,OK,11176,HDD
1540424655738767278,disk_drive,scsi-35000cca25335bd9c,OK,11176,HDD
1540424356236937287,disk_drive,scsi-35000cca25335bd9c,OK,11176,HDD
1540411039538152839,disk_drive,scsi-35000cca25335bd9c,OK,11176,HDD
1540418005740280199,disk_drive,scsi-35000cca25335bd9c,OK,11176,HDD
1540424967899685651,disk_drive,scsi-35000cca25335bd9c,OK,11176,HDD
1540419174157875833,disk_drive,scsi-35000cca25335bd9c,OK,11176,HDD
1540415569647507751,disk_drive,scsi-35000cca25335bd9c,OK,11176,HDD
1540465776921980428,disk_drive,scsi-35000cca25335bd9c,OK,11176,HDD
1540415263344070912,disk_drive,scsi-35000cca25335bd9c,OK,11176,HDD
1540415411864580244,disk_drive,scsi-35000cca25335bd9c,OK,11176,HDD
1540471452066650727,disk_drive,scsi-35000cca25335bd9c,OK,11176,HDD
1540468369322039181,disk_drive,scsi-35000cca25335bd9c,OK,11176,HDD
1540473067218752623,disk_drive,scsi-35000cca25335bd9c,OK,11176,HDD
1540409458300754715,disk_drive,scsi-35000cca25335bd9c,OK,11176,HDD
1540423880604623753,disk_drive,scsi-35000cca25335bd9c,OK,11176,HDD
1540415905657356538,disk_drive,scsi-35000cca25335bd9c,OK,11176,HDD
1540463236012036958,disk_drive,scsi-35000cca25335bd9c,OK,11176,HDD
1540467735458496527,disk_drive,scsi-35000cca25335bd9c,OK,11176,HDD
1540465937631955367,disk_drive,scsi-35000cca25335bd9c,OK,11176,HDD
1540409604171002520,disk_drive,scsi-35000cca25335bd9c,OK,11176,HDD
1540417333439822344,disk_drive,scsi-35000cca25335bd9c,OK,11176,HDD
1540408744540386362,disk_drive,scsi-35000cca25335bd9c,OK,11176,HDD
1540409299315531774,disk_drive,scsi-35000cca25335bd9c,OK,11176,HDD
1540460963011606998,disk_drive,scsi-35000cca25335bd9c,OK,11176,HDD
1540462777712814383,disk_drive,scsi-35000cca25335bd9c,OK,11176,HDD
1540463869477082471,disk_drive,scsi-35000cca25335bd9c,OK,11176,HDD
1540404077054582793,disk_drive,scsi-35000cca25335bd9c,OK,11176,HDD
1540422460813584806,disk_drive,scsi-35000cca25335bd9c,OK,11176,HDD
1540409908137036523,disk_drive,scsi-35000cca25335bd9c,OK,11176,HDD
1540419620013574557,disk_drive,scsi-35000cca25335bd9c,OK,11176,HDD
1540468822239076622,disk_drive,scsi-35000cca25335bd9c,OK,11176,HDD
1540466441432420690,disk_drive,scsi-35000cca25335bd9c,OK,11176,HDD
1540424039819269147,disk_drive,scsi-35000cca25335bd9c,OK,11176,HDD
1540474234080273425,disk_drive,scsi-35000cca25335bd9c,OK,11176,HDD
1540470712313209658,disk_drive,scsi-35000cca25335bd9c,OK,11176,HDD
1540423717370251241,disk_drive,scsi-35000cca25335bd9c,OK,11176,HDD
1540410865737321052,disk_drive,scsi-35000cca25335bd9c,OK,11176,HDD
1540473941344392774,disk_drive,scsi-35000cca25335bd9c,OK,11176,HDD
1540420646558298277,disk_drive,scsi-35000cca25335bd9c,OK,11176,HDD
1540416243185513921,disk_drive,scsi-35000cca25335bd9c,OK,11176,HDD
1540462608371284447,disk_drive,scsi-35000cca25335bd9c,OK,11176,HDD
1540471888513280443,disk_drive,scsi-35000cca25335bd9c,OK,11176,HDD
1540461118191422498,disk_drive,scsi-35000cca25335bd9c,OK,11176,HDD
1540472919740326105,disk_drive,scsi-35000cca25335bd9c,OK,11176,HDD
1540462271359551202,disk_drive,scsi-35000cca25335bd9c,OK,11176,HDD
1540415735581582556,disk_drive,scsi-35000cca25335bd9c,OK,11176,HDD
1540425122862283060,disk_drive,scsi-35000cca25335bd9c,OK,11176,HDD
1540468535090597064,disk_drive,scsi-35000cca25335bd9c,OK,11176,HDD
1540419773116775017,disk_drive,scsi-35000cca25335bd9c,OK,11176,HDD
1540411522287940528,disk_drive,scsi-35000cca25335bd9c,OK,11176,HDD
1540470545245764827,disk_drive,scsi-35000cca25335bd9c,OK,11176,HDD
1540467416448186090,disk_drive,scsi-35000cca25335bd9c,OK,11176,HDD
1540411674228694839,disk_drive,scsi-35000cca25335bd9c,OK,11176,HDD
1540409750912026498,disk_drive,scsi-35000cca25335bd9c,OK,11176,HDD
1540414088548069610,disk_drive,scsi-35000cca25335bd9c,OK,11176,HDD
1540463560716144831,disk_drive,scsi-35000cca25335bd9c,OK,11176,HDD
1540467527994689428,disk_drive,scsi-35000cca25335bd9c,OK,11176,HDD
1540407037089463420,disk_drive,scsi-35000cca25335bd9c,OK,11176,HDD
1540422544605617222,disk_drive,scsi-35000cca25335bd9c,OK,11176,HDD
1540418443512026562,disk_drive,scsi-35000cca25335bd9c,OK,11176,HDD
1540471004949213355,disk_drive,scsi-35000cca25335bd9c,OK,11176,HDD
1540471742599709003,disk_drive,scsi-35000cca25335bd9c,OK,11176,HDD
1540420355262363701,disk_drive,scsi-35000cca25335bd9c,OK,11176,HDD
1540473358337909216,disk_drive,scsi-35000cca25335bd9c,OK,11176,HDD
1540410552946156852,disk_drive,scsi-35000cca25335bd9c,OK,11176,HDD
1540467251580284794,disk_drive,scsi-35000cca25335bd9c,OK,11176,HDD
1540419918205063153,disk_drive,scsi-35000cca25335bd9c,OK,11176,HDD
1540470242758093946,disk_drive,scsi-35000cca25335bd9c,OK,11176,HDD
1540417701933001655,disk_drive,scsi-35000cca25335bd9c,OK,11176,HDD
1540467843716060244,disk_drive,scsi-35000cca25335bd9c,OK,11176,HDD
1540425288942361553,disk_drive,scsi-35000cca25335bd9c,OK,11176,HDD
1540417852468882689,disk_drive,scsi-35000cca25335bd9c,OK,11176,HDD
1540468215892157032,disk_drive,scsi-35000cca25335bd9c,OK,11176,HDD
1540411838132143061,disk_drive,scsi-35000cca25335bd9c,OK,11176,HDD
1540421085909931037,disk_drive,scsi-35000cca25335bd9c,OK,11176,HDD
1540410077762771272,disk_drive,scsi-35000cca25335bd9c,OK,11176,HDD
1540412335880566017,disk_drive,scsi-35000cca25335bd9c,OK,11176,HDD
1540404377384221906,disk_drive,scsi-35000cca25335bd9c,OK,11176,HDD
1540406726275871966,disk_drive,scsi-35000cca25335bd9c,OK,11176,HDD
1540471154410932130,disk_drive,scsi-35000cca25335bd9c,OK,11176,HDD
1540468996855790145,disk_drive,scsi-35000cca25335bd9c,OK,11176,HDD
1540474087357678616,disk_drive,scsi-35000cca25335bd9c,OK,11176,HDD
1540469150894210884,disk_drive,scsi-35000cca25335bd9c,OK,11176,HDD
1540421547872136809,disk_drive,scsi-35000cca25335bd9c,OK,11176,HDD
1540421234657380926,disk_drive,scsi-35000cca25335bd9c,OK,11176,HDD
1540417038484816305,disk_drive,scsi-35000cca25335bd9c,OK,11176,HDD
1540407908901548182,disk_drive,scsi-35000cca25335bd9c,OK,11176,HDD
1540423401533130975,disk_drive,scsi-35000cca25335bd9c,OK,11176,HDD
1540468349169574753,disk_drive,scsi-35000cca25335bd9c,OK,11176,HDD
1540425907830703279,disk_drive,scsi-35000cca25335bd9c,OK,11176,HDD
1540474381733641226,disk_drive,scsi-35000cca25335bd9c,OK,11176,HDD
1540461964843727166,disk_drive,scsi-35000cca25335bd9c,OK,11176,HDD
1540472328334968141,disk_drive,scsi-35000cca25335bd9c,OK,11176,HDD
1540471596578573810,disk_drive,scsi-35000cca25335bd9c,OK,11176,HDD
1540409111965795151,disk_drive,scsi-35000cca25335bd9c,OK,11176,HDD
1540416710042211907,disk_drive,scsi-35000cca25335bd9c,OK,11176,HDD
1540412015575326713,disk_drive,scsi-35000cca25335bd9c,OK,11176,HDD
1540467378552825839,disk_drive,scsi-35000cca25335bd9c,OK,11176,HDD
1540463723110678398,disk_drive,scsi-35000cca25335bd9c,OK,11176,HDD
1540466105135810188,disk_drive,scsi-35000cca25335bd9c,OK,11176,HDD
1540460800156895867,disk_drive,scsi-35000cca25335bd9c,OK,11176,HDD
1540461633862014884,disk_drive,scsi-35000cca25335bd9c,OK,11176,HDD
1540422292733569851,disk_drive,scsi-35000cca25335bd9c,OK,11176,HDD
1540421387115310537,disk_drive,scsi-35000cca25335bd9c,OK,11176,HDD
1540419470187263219,disk_drive,scsi-35000cca25335bd9c,OK,11176,HDD
1540465257786454028,disk_drive,scsi-35000cca25335bd9c,OK,11176,HDD
1540472620088623047,disk_drive,scsi-35000cca25335bd9c,OK,11176,HDD
1540466767593809273,disk_drive,scsi-35000cca25335bd9c,OK,11176,HDD
1540406071343982091,disk_drive,scsi-35000cca25335bd9c,OK,11176,HDD
1540463409089410334,disk_drive,scsi-35000cca25335bd9c,OK,11176,HDD
1540465422665548143,disk_drive,scsi-35000cca25335bd9c,OK,11176,HDD
1540462925034469711,disk_drive,scsi-35000cca25335bd9c,OK,11176,HDD
1540473213090466289,disk_drive,scsi-35000cca25335bd9c,OK,11176,HDD
1540472473671745468,disk_drive,scsi-35000cca25335bd9c,OK,11176,HDD
1540424821447483600,disk_drive,scsi-35000cca25335bd9c,OK,11176,HDD
1540468055191142443,disk_drive,scsi-35000cca25335bd9c,OK,11176,HDD
1540467195525460596,disk_drive,scsi-35000cca25335bd9c,OK,11176,HDD
1540424502181968673,disk_drive,scsi-35000cca25335bd9c,OK,11176,HDD
1540418735612618244,disk_drive,scsi-35000cca25335bd9c,OK,11176,HDD
1540425592404467995,disk_drive,scsi-35000cca25335bd9c,OK,11176,HDD
1540424192022469774,disk_drive,scsi-35000cca25335bd9c,OK,11176,HDD
1540472768853369986,disk_drive,scsi-35000cca25335bd9c,OK,11176,HDD
1540473504462938444,disk_drive,scsi-35000cca25335bd9c,OK,11176,HDD
1540423070642768384,disk_drive,scsi-35000cca25335bd9c,OK,11176,HDD
1540467077954173813,disk_drive,scsi-35000cca25335bd9c,OK,11176,HDD
1540460623276867765,disk_drive,scsi-35000cca25335bd9c,OK,11176,HDD
1540468181818264565,disk_drive,scsi-35000cca25335bd9c,OK,11176,HDD
1540405012971984900,disk_drive,scsi-35000cca25335bd9c,OK,11176,HDD
1540417487356814498,disk_drive,scsi-35000cca25335bd9c,OK,11176,HDD
1540417187493423646,disk_drive,scsi-35000cca25335bd9c,OK,11176,HDD
1540425760739935032,disk_drive,scsi-35000cca25335bd9c,OK,11176,HDD
1540419028068522065,disk_drive,scsi-35000cca25335bd9c,OK,11176,HDD
1540416080346079375,disk_drive,scsi-35000cca25335bd9c,OK,11176,HDD
1540469941017654894,disk_drive,scsi-35000cca25335bd9c,OK,11176,HDD
1540469299159890779,disk_drive,scsi-35000cca25335bd9c,OK,11176,HDD
1540461454516070565,disk_drive,scsi-35000cca25335bd9c,OK,11176,HDD
1540411376797311364,disk_drive,scsi-35000cca25335bd9c,OK,11176,HDD
1540471306777561957,disk_drive,scsi-35000cca25335bd9c,OK,11176,HDD
1540466285052072152,disk_drive,scsi-35000cca25335bd9c,OK,11176,HDD
1540421694205804363,disk_drive,scsi-35000cca25335bd9c,OK,11176,HDD
1540420063405168147,disk_drive,scsi-35000cca25335bd9c,OK,11176,HDD
1540467888695326497,disk_drive,scsi-35000cca25335bd9c,OK,11176,HDD
1540420792954932219,disk_drive,scsi-35000cca25335bd9c,OK,11176,HDD
1540419320895240650,disk_drive,scsi-35000cca25335bd9c,OK,11176,HDD
1540461817583776938,disk_drive,scsi-35000cca25335bd9c,OK,11176,HDD
1540415086332821476,disk_drive,scsi-35000cca25335bd9c,OK,11176,HDD
1540410259582971427,disk_drive,scsi-35000cca25335bd9c,OK,11176,HDD
1540464022425586667,disk_drive,scsi-35000cca25335bd9c,OK,11176,HDD
1540418151686904253,disk_drive,scsi-35000cca25335bd9c,OK,11176,HDD
1540416390574779648,disk_drive,scsi-35000cca25335bd9c,OK,11176,HDD
1540408613902670665,disk_drive,scsi-35000cca25335bd9c,OK,11176,HDD
1540462112432768385,disk_drive,scsi-35000cca25335bd9c,OK,11176,HDD
1540474532213457224,disk_drive,scsi-35000cca25335bd9c,OK,11176,HDD
1540404226697603341,disk_drive,scsi-35000cca25335bd9c,OK,11176,HDD
1540470095749948553,disk_drive,scsi-35000cca25335bd9c,OK,11176,HDD
1540422883894951061,disk_drive,scsi-35000cca25335bd9c,OK,11176,HDD
1540468497672887617,disk_drive,scsi-35000cca25335bd9c,OK,11176,HDD
1540463074941895473,disk_drive,scsi-35000cca25335bd9c,OK,11176,HDD
1540469598487930815,disk_drive,scsi-35000cca25335bd9c,OK,11176,HDD
1540406435264452126,disk_drive,scsi-35000cca25335bd9c,OK,11176,HDD
1540467589211665514,disk_drive,scsi-35000cca25335bd9c,OK,11176,HDD
1540466610369099864,disk_drive,scsi-35000cca25335bd9c,OK,11176,HDD
1540405187130385650,disk_drive,scsi-35000cca25335bd9c,OK,11176,HDD
1540472035492356063,disk_drive,scsi-35000cca25335bd9c,OK,11176,HDD
1540420939351029612,disk_drive,scsi-35000cca25335bd9c,OK,11176,HDD
1540414554984221215,disk_drive,scsi-35000cca25335bd9c,OK,11176,HDD
1540423232723699159,disk_drive,scsi-35000cca25335bd9c,OK,11176,HDD
1540470389066870529,disk_drive,scsi-35000cca25335bd9c,OK,11176,HDD
1540465594199025558,disk_drive,scsi-35000cca25335bd9c,OK,11176,HDD
1540468015353384897,disk_drive,scsi-35000cca25335bd9c,OK,11176,HDD
1540473795954757236,disk_drive,scsi-35000cca25335bd9c,OK,11176,HDD
1540418297602485766,disk_drive,scsi-35000cca25335bd9c,OK,11176,HDD
1540461284335646920,disk_drive,scsi-35000cca25335bd9c,OK,11176,HDD
1540418882207413162,disk_drive,scsi-35000cca25335bd9c,OK,11176,HDD
1540414258767267132,disk_drive,scsi-35000cca25335bd9c,OK,11176,HDD
1540466991215891135,disk_drive,scsi-35000cca25335bd9c,OK,11176,HDD
1540468505271672329,disk_drive,scsi-35000cca25335bd9c,OK,11176,HDD
1540461828255935059,disk_drive,scsi-35000cca25335bd9c,OK,11176,HDD
1540409623183065530,disk_drive,scsi-35000cca25335bd9c,OK,11176,HDD
1540461975107586834,disk_drive,scsi-35000cca25335bd9c,OK,11176,HDD
1540465975125999949,disk_drive,scsi-35000cca25335bd9c,OK,11176,HDD
1540459121385576889,disk_drive,scsi-35000cca25335bd9c,OK,11176,HDD
1540413871521620494,disk_drive,scsi-35000cca25335bd9c,OK,11176,HDD
1540468354118477789,disk_drive,scsi-35000cca25335bd9c,OK,11176,HDD
1540411548528451580,disk_drive,scsi-35000cca25335bd9c,OK,11176,HDD
1540461639268187346,disk_drive,scsi-35000cca25335bd9c,OK,11176,HDD
1540467296866624649,disk_drive,scsi-35000cca25335bd9c,OK,11176,HDD
1540468037212940020,disk_drive,scsi-35000cca25335bd9c,OK,11176,HDD
1540409775217393796,disk_drive,scsi-35000cca25335bd9c,OK,11176,HDD
1540466942238291755,disk_drive,scsi-35000cca25335bd9c,OK,11176,HDD
1540414634920054993,disk_drive,scsi-35000cca25335bd9c,OK,11176,HDD
1540467765131340713,disk_drive,scsi-35000cca25335bd9c,OK,11176,HDD
1540466274206671936,disk_drive,scsi-35000cca25335bd9c,OK,11176,HDD
1540465612193338186,disk_drive,scsi-35000cca25335bd9c,OK,11176,HDD
1540469336965572462,disk_drive,scsi-35000cca25335bd9c,OK,11176,HDD
1540464654436028769,disk_drive,scsi-35000cca25335bd9c,OK,11176,HDD
1540413905409341786,disk_drive,scsi-35000cca25335bd9c,OK,11176,HDD
1540467699076277032,disk_drive,scsi-35000cca25335bd9c,OK,11176,HDD
1540462792322079533,disk_drive,scsi-35000cca25335bd9c,OK,11176,HDD
1540414422301113402,disk_drive,scsi-35000cca25335bd9c,OK,11176,HDD
1540469533349345826,disk_drive,scsi-35000cca25335bd9c,OK,11176,HDD
1540411705626831554,disk_drive,scsi-35000cca25335bd9c,OK,11176,HDD
1540467149178322674,disk_drive,scsi-35000cca25335bd9c,OK,11176,HDD
1540413012928905195,disk_drive,scsi-35000cca25335bd9c,OK,11176,HDD
1540468558734966321,disk_drive,scsi-35000cca25335bd9c,OK,11176,HDD
1540467110012019922,disk_drive,scsi-35000cca25335bd9c,OK,11176,HDD
1540465747556533404,disk_drive,scsi-35000cca25335bd9c,OK,11176,HDD
1540414740373668687,disk_drive,scsi-35000cca25335bd9c,OK,11176,HDD
1540412866694481410,disk_drive,scsi-35000cca25335bd9c,OK,11176,HDD
1540470267835838645,disk_drive,scsi-35000cca25335bd9c,OK,11176,HDD
1540414487622184539,disk_drive,scsi-35000cca25335bd9c,OK,11176,HDD
1540466418400016279,disk_drive,scsi-35000cca25335bd9c,OK,11176,HDD
1540414342043187152,disk_drive,scsi-35000cca25335bd9c,OK,11176,HDD
1540462940137923937,disk_drive,scsi-35000cca25335bd9c,OK,11176,HDD
1540412814252388207,disk_drive,scsi-35000cca25335bd9c,OK,11176,HDD
1540472492797683637,disk_drive,scsi-35000cca25335bd9c,OK,11176,HDD
1540467745551550664,disk_drive,scsi-35000cca25335bd9c,OK,11176,HDD
1540413307166309971,disk_drive,scsi-35000cca25335bd9c,OK,11176,HDD
1540424389208121356,disk_drive,scsi-35000cca25335bd9c,OK,11176,HDD
1540467532505534030,disk_drive,scsi-35000cca25335bd9c,OK,11176,HDD
1540466039967839472,disk_drive,scsi-35000cca25335bd9c,OK,11176,HDD
1540467257563142150,disk_drive,scsi-35000cca25335bd9c,OK,11176,HDD
1540469974271548381,disk_drive,scsi-35000cca25335bd9c,OK,11176,HDD
1540467924028128160,disk_drive,scsi-35000cca25335bd9c,OK,11176,HDD
1540425960419292753,disk_drive,scsi-35000cca25335bd9c,OK,11176,HDD
1540410739298430470,disk_drive,scsi-35000cca25335bd9c,OK,11176,HDD
1540470445077185690,disk_drive,scsi-35000cca25335bd9c,OK,11176,HDD
1540422718999617867,disk_drive,scsi-35000cca25335bd9c,OK,11176,HDD
1540459419920621911,disk_drive,scsi-35000cca25335bd9c,OK,11176,HDD
1540425808379602690,disk_drive,scsi-35000cca25335bd9c,OK,11176,HDD
1540466786520550584,disk_drive,scsi-35000cca25335bd9c,OK,11176,HDD
1540471303756402635,disk_drive,scsi-35000cca25335bd9c,OK,11176,HDD
1540423075366740993,disk_drive,scsi-35000cca25335bd9c,OK,11176,HDD
1540470865243941474,disk_drive,scsi-35000cca25335bd9c,OK,11176,HDD
1540425486337314689,disk_drive,scsi-35000cca25335bd9c,OK,11176,HDD
1540471011389465925,disk_drive,scsi-35000cca25335bd9c,OK,11176,HDD
1540470718475615666,disk_drive,scsi-35000cca25335bd9c,OK,11176,HDD
1540464223080211594,disk_drive,scsi-35000cca25335bd9c,OK,11176,HDD
1540466126659347373,disk_drive,scsi-35000cca25335bd9c,OK,11176,HDD
1540423572559118574,disk_drive,scsi-35000cca25335bd9c,OK,11176,HDD
1540469982765504376,disk_drive,scsi-35000cca25335bd9c,OK,11176,HDD
1540469031846852821,disk_drive,scsi-35000cca25335bd9c,OK,11176,HDD
1540417372329650621,disk_drive,scsi-35000cca25335bd9c,OK,11176,HDD
1540461485509817013,disk_drive,scsi-35000cca25335bd9c,OK,11176,HDD
1540471598890812127,disk_drive,scsi-35000cca25335bd9c,OK,11176,HDD
1540464944421684194,disk_drive,scsi-35000cca25335bd9c,OK,11176,HDD
1540413613798763828,disk_drive,scsi-35000cca25335bd9c,OK,11176,HDD
1540466296229483438,disk_drive,scsi-35000cca25335bd9c,OK,11176,HDD
1540408744930664024,disk_drive,scsi-35000cca25335bd9c,OK,11176,HDD
1540466186979420924,disk_drive,scsi-35000cca25335bd9c,OK,11176,HDD
1540423914509472279,disk_drive,scsi-35000cca25335bd9c,OK,11176,HDD
1540410290960005470,disk_drive,scsi-35000cca25335bd9c,OK,11176,HDD
1540466638252025438,disk_drive,scsi-35000cca25335bd9c,OK,11176,HDD
1540405827100457481,disk_drive,scsi-35000cca25335bd9c,OK,11176,HDD
1540466463380410699,disk_drive,scsi-35000cca25335bd9c,OK,11176,HDD
1540412719048286273,disk_drive,scsi-35000cca25335bd9c,OK,11176,HDD
1540404077496030747,disk_drive,scsi-35000cca25335bd9c,OK,11176,HDD
1540465258199022026,disk_drive,scsi-35000cca25335bd9c,OK,11176,HDD
1540408934793124566,disk_drive,scsi-35000cca25335bd9c,OK,11176,HDD
1540470292275161321,disk_drive,scsi-35000cca25335bd9c,OK,11176,HDD
1540410583738817491,disk_drive,scsi-35000cca25335bd9c,OK,11176,HDD
1540472038622750398,disk_drive,scsi-35000cca25335bd9c,OK,11176,HDD
1540469190673727442,disk_drive,scsi-35000cca25335bd9c,OK,11176,HDD
1540472187144006629,disk_drive,scsi-35000cca25335bd9c,OK,11176,HDD
1540414051357994716,disk_drive,scsi-35000cca25335bd9c,OK,11176,HDD
1540414915252987119,disk_drive,scsi-35000cca25335bd9c,OK,11176,HDD
1540425178640614558,disk_drive,scsi-35000cca25335bd9c,OK,11176,HDD
1540465382930837403,disk_drive,scsi-35000cca25335bd9c,OK,11176,HDD
1540404983612359068,disk_drive,scsi-35000cca25335bd9c,OK,11176,HDD
1540423425583177663,disk_drive,scsi-35000cca25335bd9c,OK,11176,HDD
1540405311588179553,disk_drive,scsi-35000cca25335bd9c,OK,11176,HDD
1540425335383744769,disk_drive,scsi-35000cca25335bd9c,OK,11176,HDD
1540468402877268883,disk_drive,scsi-35000cca25335bd9c,OK,11176,HDD
1540415416649355133,disk_drive,scsi-35000cca25335bd9c,OK,11176,HDD
1540467868954581181,disk_drive,scsi-35000cca25335bd9c,OK,11176,HDD
1540405349544185164,disk_drive,scsi-35000cca25335bd9c,OK,11176,HDD
1540467433818314491,disk_drive,scsi-35000cca25335bd9c,OK,11176,HDD
1540471157353683512,disk_drive,scsi-35000cca25335bd9c,OK,11176,HDD
1540468849873362814,disk_drive,scsi-35000cca25335bd9c,OK,11176,HDD
1540470414797997247,disk_drive,scsi-35000cca25335bd9c,OK,11176,HDD
1540424695939472023,disk_drive,scsi-35000cca25335bd9c,OK,11176,HDD
1540468243787031496,disk_drive,scsi-35000cca25335bd9c,OK,11176,HDD
1540459866342208933,disk_drive,scsi-35000cca25335bd9c,OK,11176,HDD
1540469815913430785,disk_drive,scsi-35000cca25335bd9c,OK,11176,HDD
1540463097346892456,disk_drive,scsi-35000cca25335bd9c,OK,11176,HDD
1540414574814294000,disk_drive,scsi-35000cca25335bd9c,OK,11176,HDD
1540466564010772739,disk_drive,scsi-35000cca25335bd9c,OK,11176,HDD
1540415265579295295,disk_drive,scsi-35000cca25335bd9c,OK,11176,HDD
1540412229385544183,disk_drive,scsi-35000cca25335bd9c,OK,11176,HDD
1540411083612464614,disk_drive,scsi-35000cca25335bd9c,OK,11176,HDD
1540465780631405474,disk_drive,scsi-35000cca25335bd9c,OK,11176,HDD
1540416103468497371,disk_drive,scsi-35000cca25335bd9c,OK,11176,HDD
1540468870498032514,disk_drive,scsi-35000cca25335bd9c,OK,11176,HDD
1540417078342323143,disk_drive,scsi-35000cca25335bd9c,OK,11176,HDD
1540465091027415071,disk_drive,scsi-35000cca25335bd9c,OK,11176,HDD
1540416740006218555,disk_drive,scsi-35000cca25335bd9c,OK,11176,HDD
1540465430846477747,disk_drive,scsi-35000cca25335bd9c,OK,11176,HDD
1540413106558479208,disk_drive,scsi-35000cca25335bd9c,OK,11176,HDD
1540468708553454533,disk_drive,scsi-35000cca25335bd9c,OK,11176,HDD
1540425016955484080,disk_drive,scsi-35000cca25335bd9c,OK,11176,HDD
1540469244456588127,disk_drive,scsi-35000cca25335bd9c,OK,11176,HDD
1540467196240859700,disk_drive,scsi-35000cca25335bd9c,OK,11176,HDD
1540469827661221169,disk_drive,scsi-35000cca25335bd9c,OK,11176,HDD
1540426124045458763,disk_drive,scsi-35000cca25335bd9c,OK,11176,HDD
1540405711519087626,disk_drive,scsi-35000cca25335bd9c,OK,11176,HDD
1540467891684975578,disk_drive,scsi-35000cca25335bd9c,OK,11176,HDD
1540409937938797882,disk_drive,scsi-35000cca25335bd9c,OK,11176,HDD
1540470145608864725,disk_drive,scsi-35000cca25335bd9c,OK,11176,HDD
1540465236818824169,disk_drive,scsi-35000cca25335bd9c,OK,11176,HDD
1540404383024364625,disk_drive,scsi-35000cca25335bd9c,OK,11176,HDD
1540465824813808873,disk_drive,scsi-35000cca25335bd9c,OK,11176,HDD
1540409130830921534,disk_drive,scsi-35000cca25335bd9c,OK,11176,HDD
1540469679788978067,disk_drive,scsi-35000cca25335bd9c,OK,11176,HDD
1540463443981065047,disk_drive,scsi-35000cca25335bd9c,OK,11176,HDD
1540413740569202857,disk_drive,scsi-35000cca25335bd9c,OK,11176,HDD
1540460966170787152,disk_drive,scsi-35000cca25335bd9c,OK,11176,HDD
1540411876244269483,disk_drive,scsi-35000cca25335bd9c,OK,11176,HDD
1540413759260184122,disk_drive,scsi-35000cca25335bd9c,OK,11176,HDD
1540414275348689681,disk_drive,scsi-35000cca25335bd9c,OK,11176,HDD
1540471745484375190,disk_drive,scsi-35000cca25335bd9c,OK,11176,HDD
1540412573094023615,disk_drive,scsi-35000cca25335bd9c,OK,11176,HDD
1540465530227465411,disk_drive,scsi-35000cca25335bd9c,OK,11176,HDD
1540464798067550328,disk_drive,scsi-35000cca25335bd9c,OK,11176,HDD
1540464509033779956,disk_drive,scsi-35000cca25335bd9c,OK,11176,HDD
1540410113165886569,disk_drive,scsi-35000cca25335bd9c,OK,11176,HDD
1540422902872640378,disk_drive,scsi-35000cca25335bd9c,OK,11176,HDD
1540460534599669398,disk_drive,scsi-35000cca25335bd9c,OK,11176,HDD
1540471450777724723,disk_drive,scsi-35000cca25335bd9c,OK,11176,HDD
1540466826897276870,disk_drive,scsi-35000cca25335bd9c,OK,11176,HDD
1540415940559593387,disk_drive,scsi-35000cca25335bd9c,OK,11176,HDD
1540467002008261060,disk_drive,scsi-35000cca25335bd9c,OK,11176,HDD
1540465677655602684,disk_drive,scsi-35000cca25335bd9c,OK,11176,HDD
1540412357814655932,disk_drive,scsi-35000cca25335bd9c,OK,11176,HDD
1540411402139074560,disk_drive,scsi-35000cca25335bd9c,OK,11176,HDD
1540464051980456298,disk_drive,scsi-35000cca25335bd9c,OK,11176,HDD
1540462628312689168,disk_drive,scsi-35000cca25335bd9c,OK,11176,HDD
1540459274364289463,disk_drive,scsi-35000cca25335bd9c,OK,11176,HDD
1540411256512621469,disk_drive,scsi-35000cca25335bd9c,OK,11176,HDD
1540410905858677795,disk_drive,scsi-35000cca25335bd9c,OK,11176,HDD
1540468096163492827,disk_drive,scsi-35000cca25335bd9c,OK,11176,HDD
1540414780727255576,disk_drive,scsi-35000cca25335bd9c,OK,11176,HDD
1540415582741356462,disk_drive,scsi-35000cca25335bd9c,OK,11176,HDD
1540423740949123733,disk_drive,scsi-35000cca25335bd9c,OK,11176,HDD
1540424061612675335,disk_drive,scsi-35000cca25335bd9c,OK,11176,HDD
1540415093051952061,disk_drive,scsi-35000cca25335bd9c,OK,11176,HDD
1540405146458147411,disk_drive,scsi-35000cca25335bd9c,OK,11176,HDD
1540417224440987168,disk_drive,scsi-35000cca25335bd9c,OK,11176,HDD
1540425650346063383,disk_drive,scsi-35000cca25335bd9c,OK,11176,HDD
1540466854985763123,disk_drive,scsi-35000cca25335bd9c,OK,11176,HDD
1540413158764209878,disk_drive,scsi-35000cca25335bd9c,OK,11176,HDD
1540466708974821580,disk_drive,scsi-35000cca25335bd9c,OK,11176,HDD
1540423245433122800,disk_drive,scsi-35000cca25335bd9c,OK,11176,HDD
1540412058110377853,disk_drive,scsi-35000cca25335bd9c,OK,11176,HDD
1540469484875919628,disk_drive,scsi-35000cca25335bd9c,OK,11176,HDD
1540424219473073481,disk_drive,scsi-35000cca25335bd9c,OK,11176,HDD
1540406071760370205,disk_drive,scsi-35000cca25335bd9c,OK,11176,HDD
1540414095413263470,disk_drive,scsi-35000cca25335bd9c,OK,11176,HDD
1540472339110341144,disk_drive,scsi-35000cca25335bd9c,OK,11176,HDD
1540463893652636123,disk_drive,scsi-35000cca25335bd9c,OK,11176,HDD
1540472638399719597,disk_drive,scsi-35000cca25335bd9c,OK,11176,HDD
1540410436823387360,disk_drive,scsi-35000cca25335bd9c,OK,11176,HDD
1540461303710218033,disk_drive,scsi-35000cca25335bd9c,OK,11176,HDD
1540461127979322690,disk_drive,scsi-35000cca25335bd9c,OK,11176,HDD
1540412961076265008,disk_drive,scsi-35000cca25335bd9c,OK,11176,HDD
1540460623670098671,disk_drive,scsi-35000cca25335bd9c,OK,11176,HDD
1540462132290686713,disk_drive,scsi-35000cca25335bd9c,OK,11176,HDD
1540467380996078161,disk_drive,scsi-35000cca25335bd9c,OK,11176,HDD
1540467617707399043,disk_drive,scsi-35000cca25335bd9c,OK,11176,HDD
1540460811602179540,disk_drive,scsi-35000cca25335bd9c,OK,11176,HDD
1540462473988712616,disk_drive,scsi-35000cca25335bd9c,OK,11176,HDD
1540405074928498998,disk_drive,scsi-35000cca25335bd9c,OK,11176,HDD
1540469099264443973,disk_drive,scsi-35000cca25335bd9c,OK,11176,HDD
1540409329546217790,disk_drive,scsi-35000cca25335bd9c,OK,11176,HDD
1540409476282147700,disk_drive,scsi-35000cca25335bd9c,OK,11176,HDD
1540459713452488560,disk_drive,scsi-35000cca25335bd9c,OK,11176,HDD
1540469644340618485,disk_drive,scsi-35000cca25335bd9c,OK,11176,HDD
1540414196260371240,disk_drive,scsi-35000cca25335bd9c,OK,11176,HDD
1540468202487013390,disk_drive,scsi-35000cca25335bd9c,OK,11176,HDD
1540469389133200325,disk_drive,scsi-35000cca25335bd9c,OK,11176,HDD
1540463745943281572,disk_drive,scsi-35000cca25335bd9c,OK,11176,HDD
1540463264478732108,disk_drive,scsi-35000cca25335bd9c,OK,11176,HDD
1540424536389209646,disk_drive,scsi-35000cca25335bd9c,OK,11176,HDD
1540471891804634460,disk_drive,scsi-35000cca25335bd9c,OK,11176,HDD
1540416250923168851,disk_drive,scsi-35000cca25335bd9c,OK,11176,HDD
1540470564849907560,disk_drive,scsi-35000cca25335bd9c,OK,11176,HDD
1540463599996482191,disk_drive,scsi-35000cca25335bd9c,OK,11176,HDD
1540404226871721906,disk_drive,scsi-35000cca25335bd9c,OK,11176,HDD
1540465893615890708,disk_drive,scsi-35000cca25335bd9c,OK,11176,HDD
1540468046955544123,disk_drive,scsi-35000cca25335bd9c,OK,11176,HDD
1540467443699610465,disk_drive,scsi-35000cca25335bd9c,OK,11176,HDD
1540405565112226669,disk_drive,scsi-35000cca25335bd9c,OK,11176,HDD
1540416401581470074,disk_drive,scsi-35000cca25335bd9c,OK,11176,HDD
1540467592931006251,disk_drive,scsi-35000cca25335bd9c,OK,11176,HDD
1540405187457634025,disk_drive,scsi-35000cca25335bd9c,OK,11176,HDD
1540468675463415226,disk_drive,scsi-35000cca25335bd9c,OK,11176,HDD
1540413458627226970,disk_drive,scsi-35000cca25335bd9c,OK,11176,HDD
1540405980803884373,disk_drive,scsi-35000cca25335bd9c,OK,11176,HDD
1540462297426709648,disk_drive,scsi-35000cca25335bd9c,OK,11176,HDD
1540415758356477904,disk_drive,scsi-35000cca25335bd9c,OK,11176,HDD
1540416920153277934,disk_drive,scsi-35000cca25335bd9c,OK,11176,HDD
1540466128900136094,disk_drive,scsi-35000cca25335bd9c,OK,11176,HDD
1540422545029938566,disk_drive,scsi-35000cca25335bd9c,OK,11176,HDD
1540470120359410989,disk_drive,scsi-35000cca25335bd9c,OK,11176,HDD
1540465948590761218,disk_drive,scsi-35000cca25335bd9c,OK,11176,HDD
1540416566690868768,disk_drive,scsi-35000cca25335bd9c,OK,11176,HDD
1540424867946291830,disk_drive,scsi-35000cca25335bd9c,OK,11176,HDD
1540459566245798175,disk_drive,scsi-35000cca25335bd9c,OK,11176,HDD
1540412210936126955,disk_drive,scsi-35000cca25335bd9c,OK,11176,HDD
