timestamp,type,name,health_state
1540410407075218631,network,sp-0-3-p02,DOWN
1540413871162082640,network,sp-0-3-p02,DOWN
1540425435584575675,network,sp-0-3-p02,DOWN
1540408925269407787,network,sp-0-3-p02,DOWN
1540411231439008046,network,sp-0-3-p02,DOWN
1540406879079025164,network,sp-0-3-p02,DOWN
1540407737916498273,network,sp-0-3-p02,DOWN
1540414406444586417,network,sp-0-3-p02,DOWN
1540426067966429996,network,sp-0-3-p02,DOWN
1540410702941823850,network,sp-0-3-p02,DOWN
1540416547875890466,network,sp-0-3-p02,DOWN
1540414713050488608,network,sp-0-3-p02,DOWN
1540423559573957123,network,sp-0-3-p02,DOWN
1540416884896376792,network,sp-0-3-p02,DOWN
1540412190004970042,network,sp-0-3-p02,DOWN
1540468682621319928,network,sp-0-3-p02,DOWN
1540424655738767278,network,sp-0-3-p02,DOWN
1540424356236937287,network,sp-0-3-p02,DOWN
1540424967899685651,network,sp-0-3-p02,DOWN
1540415569647507751,network,sp-0-3-p02,DOWN
1540465776921980428,network,sp-0-3-p02,DOWN
1540415263344070912,network,sp-0-3-p02,DOWN
1540415411864580244,network,sp-0-3-p02,DOWN
1540409458300754715,network,sp-0-3-p02,DOWN
1540423880604623753,network,sp-0-3-p02,DOWN
1540415905657356538,network,sp-0-3-p02,DOWN
1540467735458496527,network,sp-0-3-p02,DOWN
1540465937631955367,network,sp-0-3-p02,DOWN
1540409604171002520,network,sp-0-3-p02,DOWN
1540417333439822344,network,sp-0-3-p02,DOWN
1540408744540386362,network,sp-0-3-p02,DOWN
1540409299315531774,network,sp-0-3-p02,DOWN
1540404077054582793,network,sp-0-3-p02,DOWN
1540422460813584806,network,sp-0-3-p02,DOWN
1540409908137036523,network,sp-0-3-p02,DOWN
1540466441432420690,network,sp-0-3-p02,DOWN
1540423717370251241,network,sp-0-3-p02,DOWN
1540410865737321052,network,sp-0-3-p02,DOWN
1540416243185513921,network,sp-0-3-p02,DOWN
1540415735581582556,network,sp-0-3-p02,DOWN
1540425122862283060,network,sp-0-3-p02,DOWN
1540468535090597064,network,sp-0-3-p02,DOWN
1540411522287940528,network,sp-0-3-p02,DOWN
1540467416448186090,network,sp-0-3-p02,DOWN
1540411674228694839,network,sp-0-3-p02,DOWN
1540409750912026498,network,sp-0-3-p02,DOWN
1540414088548069610,network,sp-0-3-p02,DOWN
1540407037089463420,network,sp-0-3-p02,DOWN
1540422544605617222,network,sp-0-3-p02,DOWN
1540467251580284794,network,sp-0-3-p02,DOWN
1540425288942361553,network,sp-0-3-p02,DOWN
1540468215892157032,network,sp-0-3-p02,DOWN
1540411838132143061,network,sp-0-3-p02,DOWN
1540410077762771272,network,sp-0-3-p02,DOWN
1540412335880566017,network,sp-0-3-p02,DOWN
1540404377384221906,network,sp-0-3-p02,DOWN
1540421547872136809,network,sp-0-3-p02,DOWN
1540417038484816305,network,sp-0-3-p02,DOWN
1540423401533130975,network,sp-0-3-p02,DOWN
1540425907830703279,network,sp-0-3-p02,DOWN
1540409111965795151,network,sp-0-3-p02,DOWN
1540416710042211907,network,sp-0-3-p02,DOWN
1540466105135810188,network,sp-0-3-p02,DOWN
1540422292733569851,network,sp-0-3-p02,DOWN
1540465257786454028,network,sp-0-3-p02,DOWN
1540406071343982091,network,sp-0-3-p02,DOWN
1540465422665548143,network,sp-0-3-p02,DOWN
1540424821447483600,network,sp-0-3-p02,DOWN
1540468055191142443,network,sp-0-3-p02,DOWN
1540424502181968673,network,sp-0-3-p02,DOWN
1540425592404467995,network,sp-0-3-p02,DOWN
1540424192022469774,network,sp-0-3-p02,DOWN
1540467077954173813,network,sp-0-3-p02,DOWN
1540405012971984900,network,sp-0-3-p02,DOWN
1540417487356814498,network,sp-0-3-p02,DOWN
1540417187493423646,network,sp-0-3-p02,DOWN
1540425760739935032,network,sp-0-3-p02,DOWN
1540416080346079375,network,sp-0-3-p02,DOWN
1540466285052072152,network,sp-0-3-p02,DOWN
1540467888695326497,network,sp-0-3-p02,DOWN
1540415086332821476,network,sp-0-3-p02,DOWN
1540410259582971427,network,sp-0-3-p02,DOWN
1540416390574779648,network,sp-0-3-p02,DOWN
1540408613902670665,network,sp-0-3-p02,DOWN
1540404226697603341,network,sp-0-3-p02,DOWN
1540422883894951061,network,sp-0-3-p02,DOWN
1540467589211665514,network,sp-0-3-p02,DOWN
1540466610369099864,network,sp-0-3-p02,DOWN
1540405187130385650,network,sp-0-3-p02,DOWN
1540414554984221215,network,sp-0-3-p02,DOWN
1540423232723699159,network,sp-0-3-p02,DOWN
1540465594199025558,network,sp-0-3-p02,DOWN
1540409623183065530,network,sp-0-3-p02,DOWN
1540459121385576889,network,sp-0-3-p02,DOWN
1540413871521620494,network,sp-0-3-p02,DOWN
1540411548528451580,network,sp-0-3-p02,DOWN
1540409775217393796,network,sp-0-3-p02,DOWN
1540466942238291755,network,sp-0-3-p02,DOWN
1540414634920054993,network,sp-0-3-p02,DOWN
1540467765131340713,network,sp-0-3-p02,DOWN
1540465612193338186,network,sp-0-3-p02,DOWN
1540413905409341786,network,sp-0-3-p02,DOWN
1540414422301113402,network,sp-0-3-p02,DOWN
1540469533349345826,network,sp-0-3-p02,DOWN
1540411705626831554,network,sp-0-3-p02,DOWN
1540413012928905195,network,sp-0-3-p02,DOWN
1540468558734966321,network,sp-0-3-p02,DOWN
1540467110012019922,network,sp-0-3-p02,DOWN
1540414740373668687,network,sp-0-3-p02,DOWN
1540412866694481410,network,sp-0-3-p02,DOWN
1540470267835838645,network,sp-0-3-p02,DOWN
1540414487622184539,network,sp-0-3-p02,DOWN
1540414342043187152,network,sp-0-3-p02,DOWN
1540412814252388207,network,sp-0-3-p02,DOWN
1540472492797683637,network,sp-0-3-p02,DOWN
1540413307166309971,network,sp-0-3-p02,DOWN
1540424389208121356,network,sp-0-3-p02,DOWN
1540467257563142150,network,sp-0-3-p02,DOWN
1540469974271548381,network,sp-0-3-p02,DOWN
1540467924028128160,network,sp-0-3-p02,DOWN
1540425960419292753,network,sp-0-3-p02,DOWN
1540410739298430470,network,sp-0-3-p02,DOWN
1540422718999617867,network,sp-0-3-p02,DOWN
1540459419920621911,network,sp-0-3-p02,DOWN
1540425808379602690,network,sp-0-3-p02,DOWN
1540466786520550584,network,sp-0-3-p02,DOWN
1540471303756402635,network,sp-0-3-p02,DOWN
1540423075366740993,network,sp-0-3-p02,DOWN
1540470865243941474,network,sp-0-3-p02,DOWN
1540425486337314689,network,sp-0-3-p02,DOWN
1540471011389465925,network,sp-0-3-p02,DOWN
1540470718475615666,network,sp-0-3-p02,DOWN
1540466126659347373,network,sp-0-3-p02,DOWN
1540417372329650621,network,sp-0-3-p02,DOWN
1540471598890812127,network,sp-0-3-p02,DOWN
1540413613798763828,network,sp-0-3-p02,DOWN
1540466296229483438,network,sp-0-3-p02,DOWN
1540408744930664024,network,sp-0-3-p02,DOWN
1540423914509472279,network,sp-0-3-p02,DOWN
1540466638252025438,network,sp-0-3-p02,DOWN
1540405827100457481,network,sp-0-3-p02,DOWN
1540466463380410699,network,sp-0-3-p02,DOWN
1540404077496030747,network,sp-0-3-p02,DOWN
1540465258199022026,network,sp-0-3-p02,DOWN
1540408934793124566,network,sp-0-3-p02,DOWN
1540410583738817491,network,sp-0-3-p02,DOWN
1540472038622750398,network,sp-0-3-p02,DOWN
1540472187144006629,network,sp-0-3-p02,DOWN
1540414051357994716,network,sp-0-3-p02,DOWN
1540414915252987119,network,sp-0-3-p02,DOWN
1540425178640614558,network,sp-0-3-p02,DOWN
1540404983612359068,network,sp-0-3-p02,DOWN
1540405311588179553,network,sp-0-3-p02,DOWN
1540425335383744769,network,sp-0-3-p02,DOWN
1540468402877268883,network,sp-0-3-p02,DOWN
1540415416649355133,network,sp-0-3-p02,DOWN
1540405349544185164,network,sp-0-3-p02,DOWN
1540467433818314491,network,sp-0-3-p02,DOWN
1540470414797997247,network,sp-0-3-p02,DOWN
1540424695939472023,network,sp-0-3-p02,DOWN
1540468243787031496,network,sp-0-3-p02,DOWN
1540414574814294000,network,sp-0-3-p02,DOWN
1540415265579295295,network,sp-0-3-p02,DOWN
1540412229385544183,network,sp-0-3-p02,DOWN
1540465780631405474,network,sp-0-3-p02,DOWN
1540416103468497371,network,sp-0-3-p02,DOWN
1540468870498032514,network,sp-0-3-p02,DOWN
1540417078342323143,network,sp-0-3-p02,DOWN
1540416740006218555,network,sp-0-3-p02,DOWN
1540465430846477747,network,sp-0-3-p02,DOWN
1540468708553454533,network,sp-0-3-p02,DOWN
1540425016955484080,network,sp-0-3-p02,DOWN
1540469244456588127,network,sp-0-3-p02,DOWN
1540469827661221169,network,sp-0-3-p02,DOWN
1540426124045458763,network,sp-0-3-p02,DOWN
1540405711519087626,network,sp-0-3-p02,DOWN
1540409937938797882,network,sp-0-3-p02,DOWN
1540404383024364625,network,sp-0-3-p02,DOWN
1540409130830921534,network,sp-0-3-p02,DOWN
1540469679788978067,network,sp-0-3-p02,DOWN
1540413740569202857,network,sp-0-3-p02,DOWN
1540411876244269483,network,sp-0-3-p02,DOWN
1540413759260184122,network,sp-0-3-p02,DOWN
1540414275348689681,network,sp-0-3-p02,DOWN
1540471745484375190,network,sp-0-3-p02,DOWN
1540412573094023615,network,sp-0-3-p02,DOWN
1540410113165886569,network,sp-0-3-p02,DOWN
1540422902872640378,network,sp-0-3-p02,DOWN
1540471450777724723,network,sp-0-3-p02,DOWN
1540415940559593387,network,sp-0-3-p02,DOWN
1540411402139074560,network,sp-0-3-p02,DOWN
1540459274364289463,network,sp-0-3-p02,DOWN
1540468096163492827,network,sp-0-3-p02,DOWN
1540414780727255576,network,sp-0-3-p02,DOWN
1540415582741356462,network,sp-0-3-p02,DOWN
1540423740949123733,network,sp-0-3-p02,DOWN
1540424061612675335,network,sp-0-3-p02,DOWN
1540415093051952061,network,sp-0-3-p02,DOWN
1540405146458147411,network,sp-0-3-p02,DOWN
1540417224440987168,network,sp-0-3-p02,DOWN
1540425650346063383,network,sp-0-3-p02,DOWN
1540412058110377853,network,sp-0-3-p02,DOWN
1540424219473073481,network,sp-0-3-p02,DOWN
1540406071760370205,network,sp-0-3-p02,DOWN
1540414095413263470,network,sp-0-3-p02,DOWN
1540472339110341144,network,sp-0-3-p02,DOWN
1540472638399719597,network,sp-0-3-p02,DOWN
1540410436823387360,network,sp-0-3-p02,DOWN
1540412961076265008,network,sp-0-3-p02,DOWN
1540467617707399043,network,sp-0-3-p02,DOWN
1540405074928498998,network,sp-0-3-p02,DOWN
1540409329546217790,network,sp-0-3-p02,DOWN
1540409476282147700,network,sp-0-3-p02,DOWN
1540414196260371240,network,sp-0-3-p02,DOWN
1540469389133200325,network,sp-0-3-p02,DOWN
1540424536389209646,network,sp-0-3-p02,DOWN
1540471891804634460,network,sp-0-3-p02,DOWN
1540416250923168851,network,sp-0-3-p02,DOWN
1540470564849907560,network,sp-0-3-p02,DOWN
1540404226871721906,network,sp-0-3-p02,DOWN
1540405565112226669,network,sp-0-3-p02,DOWN
1540416401581470074,network,sp-0-3-p02,DOWN
1540405187457634025,network,sp-0-3-p02,DOWN
1540405980803884373,network,sp-0-3-p02,DOWN
1540415758356477904,network,sp-0-3-p02,DOWN
1540416920153277934,network,sp-0-3-p02,DOWN
1540422545029938566,network,sp-0-3-p02,DOWN
1540470120359410989,network,sp-0-3-p02,DOWN
1540465948590761218,network,sp-0-3-p02,DOWN
1540416566690868768,network,sp-0-3-p02,DOWN
1540424867946291830,network,sp-0-3-p02,DOWN
1540412210936126955,network,sp-0-3-p02,DOWN
1540461828255935059,network,sp-0-3-p02,DOWN
1540409623183065530,network,sp-0-3-p02,DOWN
1540461975107586834,network,sp-0-3-p02,DOWN
1540465975125999949,network,sp-0-3-p02,DOWN
1540459121385576889,network,sp-0-3-p02,DOWN
1540413871521620494,network,sp-0-3-p02,DOWN
1540411548528451580,network,sp-0-3-p02,DOWN
1540461639268187346,network,sp-0-3-p02,DOWN
1540467296866624649,network,sp-0-3-p02,DOWN
1540409775217393796,network,sp-0-3-p02,DOWN
1540466942238291755,network,sp-0-3-p02,DOWN
1540414634920054993,network,sp-0-3-p02,DOWN
1540467765131340713,network,sp-0-3-p02,DOWN
1540466274206671936,network,sp-0-3-p02,DOWN
1540465612193338186,network,sp-0-3-p02,DOWN
1540413905409341786,network,sp-0-3-p02,DOWN
1540414422301113402,network,sp-0-3-p02,DOWN
1540469533349345826,network,sp-0-3-p02,DOWN
1540411705626831554,network,sp-0-3-p02,DOWN
1540413012928905195,network,sp-0-3-p02,DOWN
1540468558734966321,network,sp-0-3-p02,DOWN
1540467110012019922,network,sp-0-3-p02,DOWN
1540465747556533404,network,sp-0-3-p02,DOWN
1540414740373668687,network,sp-0-3-p02,DOWN
1540412866694481410,network,sp-0-3-p02,DOWN
1540470267835838645,network,sp-0-3-p02,DOWN
1540414487622184539,network,sp-0-3-p02,DOWN
1540466418400016279,network,sp-0-3-p02,DOWN
1540414342043187152,network,sp-0-3-p02,DOWN
1540462940137923937,network,sp-0-3-p02,DOWN
1540412814252388207,network,sp-0-3-p02,DOWN
1540472492797683637,network,sp-0-3-p02,DOWN
1540467745551550664,network,sp-0-3-p02,DOWN
1540413307166309971,network,sp-0-3-p02,DOWN
1540424389208121356,network,sp-0-3-p02,DOWN
1540467257563142150,network,sp-0-3-p02,DOWN
1540469974271548381,network,sp-0-3-p02,DOWN
1540467924028128160,network,sp-0-3-p02,DOWN
1540425960419292753,network,sp-0-3-p02,DOWN
1540410739298430470,network,sp-0-3-p02,DOWN
1540422718999617867,network,sp-0-3-p02,DOWN
1540459419920621911,network,sp-0-3-p02,DOWN
1540425808379602690,network,sp-0-3-p02,DOWN
1540466786520550584,network,sp-0-3-p02,DOWN
1540471303756402635,network,sp-0-3-p02,DOWN
1540423075366740993,network,sp-0-3-p02,DOWN
1540470865243941474,network,sp-0-3-p02,DOWN
1540425486337314689,network,sp-0-3-p02,DOWN
1540471011389465925,network,sp-0-3-p02,DOWN
1540470718475615666,network,sp-0-3-p02,DOWN
1540464223080211594,network,sp-0-3-p02,DOWN
1540466126659347373,network,sp-0-3-p02,DOWN
1540417372329650621,network,sp-0-3-p02,DOWN
1540461485509817013,network,sp-0-3-p02,DOWN
1540471598890812127,network,sp-0-3-p02,DOWN
1540464944421684194,network,sp-0-3-p02,DOWN
1540413613798763828,network,sp-0-3-p02,DOWN
1540466296229483438,network,sp-0-3-p02,DOWN
1540408744930664024,network,sp-0-3-p02,DOWN
1540423914509472279,network,sp-0-3-p02,DOWN
1540466638252025438,network,sp-0-3-p02,DOWN
1540405827100457481,network,sp-0-3-p02,DOWN
1540466463380410699,network,sp-0-3-p02,DOWN
1540404077496030747,network,sp-0-3-p02,DOWN
1540465258199022026,network,sp-0-3-p02,DOWN
1540408934793124566,network,sp-0-3-p02,DOWN
1540410583738817491,network,sp-0-3-p02,DOWN
1540472038622750398,network,sp-0-3-p02,DOWN
1540472187144006629,network,sp-0-3-p02,DOWN
1540414051357994716,network,sp-0-3-p02,DOWN
1540414915252987119,network,sp-0-3-p02,DOWN
1540425178640614558,network,sp-0-3-p02,DOWN
1540465382930837403,network,sp-0-3-p02,DOWN
1540404983612359068,network,sp-0-3-p02,DOWN
1540405311588179553,network,sp-0-3-p02,DOWN
1540425335383744769,network,sp-0-3-p02,DOWN
1540468402877268883,network,sp-0-3-p02,DOWN
1540415416649355133,network,sp-0-3-p02,DOWN
1540405349544185164,network,sp-0-3-p02,DOWN
1540467433818314491,network,sp-0-3-p02,DOWN
1540470414797997247,network,sp-0-3-p02,DOWN
1540424695939472023,network,sp-0-3-p02,DOWN
1540468243787031496,network,sp-0-3-p02,DOWN
1540463097346892456,network,sp-0-3-p02,DOWN
1540414574814294000,network,sp-0-3-p02,DOWN
1540466564010772739,network,sp-0-3-p02,DOWN
1540415265579295295,network,sp-0-3-p02,DOWN
1540412229385544183,network,sp-0-3-p02,DOWN
1540465780631405474,network,sp-0-3-p02,DOWN
1540416103468497371,network,sp-0-3-p02,DOWN
1540468870498032514,network,sp-0-3-p02,DOWN
1540417078342323143,network,sp-0-3-p02,DOWN
1540416740006218555,network,sp-0-3-p02,DOWN
1540465430846477747,network,sp-0-3-p02,DOWN
1540468708553454533,network,sp-0-3-p02,DOWN
1540425016955484080,network,sp-0-3-p02,DOWN
1540469244456588127,network,sp-0-3-p02,DOWN
1540469827661221169,network,sp-0-3-p02,DOWN
1540426124045458763,network,sp-0-3-p02,DOWN
1540405711519087626,network,sp-0-3-p02,DOWN
1540409937938797882,network,sp-0-3-p02,DOWN
1540465236818824169,network,sp-0-3-p02,DOWN
1540404383024364625,network,sp-0-3-p02,DOWN
1540465824813808873,network,sp-0-3-p02,DOWN
1540409130830921534,network,sp-0-3-p02,DOWN
1540469679788978067,network,sp-0-3-p02,DOWN
1540463443981065047,network,sp-0-3-p02,DOWN
1540413740569202857,network,sp-0-3-p02,DOWN
1540460966170787152,network,sp-0-3-p02,DOWN
1540411876244269483,network,sp-0-3-p02,DOWN
1540413759260184122,network,sp-0-3-p02,DOWN
1540414275348689681,network,sp-0-3-p02,DOWN
1540471745484375190,network,sp-0-3-p02,DOWN
1540412573094023615,network,sp-0-3-p02,DOWN
1540464509033779956,network,sp-0-3-p02,DOWN
1540410113165886569,network,sp-0-3-p02,DOWN
1540422902872640378,network,sp-0-3-p02,DOWN
1540460534599669398,network,sp-0-3-p02,DOWN
1540471450777724723,network,sp-0-3-p02,DOWN
1540415940559593387,network,sp-0-3-p02,DOWN
1540465677655602684,network,sp-0-3-p02,DOWN
1540411402139074560,network,sp-0-3-p02,DOWN
1540464051980456298,network,sp-0-3-p02,DOWN
1540459274364289463,network,sp-0-3-p02,DOWN
1540468096163492827,network,sp-0-3-p02,DOWN
1540414780727255576,network,sp-0-3-p02,DOWN
1540415582741356462,network,sp-0-3-p02,DOWN
1540423740949123733,network,sp-0-3-p02,DOWN
1540424061612675335,network,sp-0-3-p02,DOWN
1540415093051952061,network,sp-0-3-p02,DOWN
1540405146458147411,network,sp-0-3-p02,DOWN
1540417224440987168,network,sp-0-3-p02,DOWN
1540425650346063383,network,sp-0-3-p02,DOWN
1540466854985763123,network,sp-0-3-p02,DOWN
1540466708974821580,network,sp-0-3-p02,DOWN
1540412058110377853,network,sp-0-3-p02,DOWN
1540424219473073481,network,sp-0-3-p02,DOWN
1540406071760370205,network,sp-0-3-p02,DOWN
1540414095413263470,network,sp-0-3-p02,DOWN
1540472339110341144,network,sp-0-3-p02,DOWN
1540463893652636123,network,sp-0-3-p02,DOWN
1540472638399719597,network,sp-0-3-p02,DOWN
1540410436823387360,network,sp-0-3-p02,DOWN
1540461303710218033,network,sp-0-3-p02,DOWN
1540461127979322690,network,sp-0-3-p02,DOWN
1540412961076265008,network,sp-0-3-p02,DOWN
1540460623670098671,network,sp-0-3-p02,DOWN
1540462132290686713,network,sp-0-3-p02,DOWN
1540467617707399043,network,sp-0-3-p02,DOWN
1540462473988712616,network,sp-0-3-p02,DOWN
1540405074928498998,network,sp-0-3-p02,DOWN
1540409329546217790,network,sp-0-3-p02,DOWN
1540409476282147700,network,sp-0-3-p02,DOWN
1540459713452488560,network,sp-0-3-p02,DOWN
1540414196260371240,network,sp-0-3-p02,DOWN
1540469389133200325,network,sp-0-3-p02,DOWN
1540463745943281572,network,sp-0-3-p02,DOWN
1540424536389209646,network,sp-0-3-p02,DOWN
1540471891804634460,network,sp-0-3-p02,DOWN
1540416250923168851,network,sp-0-3-p02,DOWN
1540470564849907560,network,sp-0-3-p02,DOWN
1540463599996482191,network,sp-0-3-p02,DOWN
1540404226871721906,network,sp-0-3-p02,DOWN
1540467443699610465,network,sp-0-3-p02,DOWN
1540405565112226669,network,sp-0-3-p02,DOWN
1540416401581470074,network,sp-0-3-p02,DOWN
1540405187457634025,network,sp-0-3-p02,DOWN
1540405980803884373,network,sp-0-3-p02,DOWN
1540415758356477904,network,sp-0-3-p02,DOWN
1540416920153277934,network,sp-0-3-p02,DOWN
1540466128900136094,network,sp-0-3-p02,DOWN
1540422545029938566,network,sp-0-3-p02,DOWN
1540470120359410989,network,sp-0-3-p02,DOWN
1540465948590761218,network,sp-0-3-p02,DOWN
1540416566690868768,network,sp-0-3-p02,DOWN
1540424867946291830,network,sp-0-3-p02,DOWN
1540459566245798175,network,sp-0-3-p02,DOWN
1540412210936126955,network,sp-0-3-p02,DOWN
1540410407075218631,network,sp-0-3-p02,DOWN
1540413871162082640,network,sp-0-3-p02,DOWN
1540425435584575675,network,sp-0-3-p02,DOWN
1540408925269407787,network,sp-0-3-p02,DOWN
1540411231439008046,network,sp-0-3-p02,DOWN
1540406879079025164,network,sp-0-3-p02,DOWN
1540407737916498273,network,sp-0-3-p02,DOWN
1540414406444586417,network,sp-0-3-p02,DOWN
1540426067966429996,network,sp-0-3-p02,DOWN
1540410702941823850,network,sp-0-3-p02,DOWN
1540416547875890466,network,sp-0-3-p02,DOWN
1540414713050488608,network,sp-0-3-p02,DOWN
1540423559573957123,network,sp-0-3-p02,DOWN
1540416884896376792,network,sp-0-3-p02,DOWN
1540412190004970042,network,sp-0-3-p02,DOWN
1540468682621319928,network,sp-0-3-p02,DOWN
1540424655738767278,network,sp-0-3-p02,DOWN
1540424356236937287,network,sp-0-3-p02,DOWN
1540424967899685651,network,sp-0-3-p02,DOWN
1540415569647507751,network,sp-0-3-p02,DOWN
1540465776921980428,network,sp-0-3-p02,DOWN
1540415263344070912,network,sp-0-3-p02,DOWN
1540415411864580244,network,sp-0-3-p02,DOWN
1540409458300754715,network,sp-0-3-p02,DOWN
1540423880604623753,network,sp-0-3-p02,DOWN
1540415905657356538,network,sp-0-3-p02,DOWN
1540463236012036958,network,sp-0-3-p02,DOWN
1540467735458496527,network,sp-0-3-p02,DOWN
1540465937631955367,network,sp-0-3-p02,DOWN
1540409604171002520,network,sp-0-3-p02,DOWN
1540417333439822344,network,sp-0-3-p02,DOWN
1540408744540386362,network,sp-0-3-p02,DOWN
1540409299315531774,network,sp-0-3-p02,DOWN
1540460963011606998,network,sp-0-3-p02,DOWN
1540462777712814383,network,sp-0-3-p02,DOWN
1540463869477082471,network,sp-0-3-p02,DOWN
1540404077054582793,network,sp-0-3-p02,DOWN
1540422460813584806,network,sp-0-3-p02,DOWN
1540409908137036523,network,sp-0-3-p02,DOWN
1540466441432420690,network,sp-0-3-p02,DOWN
1540423717370251241,network,sp-0-3-p02,DOWN
1540410865737321052,network,sp-0-3-p02,DOWN
1540416243185513921,network,sp-0-3-p02,DOWN
1540462608371284447,network,sp-0-3-p02,DOWN
1540461118191422498,network,sp-0-3-p02,DOWN
1540462271359551202,network,sp-0-3-p02,DOWN
1540415735581582556,network,sp-0-3-p02,DOWN
1540425122862283060,network,sp-0-3-p02,DOWN
1540468535090597064,network,sp-0-3-p02,DOWN
1540411522287940528,network,sp-0-3-p02,DOWN
1540467416448186090,network,sp-0-3-p02,DOWN
1540411674228694839,network,sp-0-3-p02,DOWN
1540409750912026498,network,sp-0-3-p02,DOWN
1540414088548069610,network,sp-0-3-p02,DOWN
1540463560716144831,network,sp-0-3-p02,DOWN
1540407037089463420,network,sp-0-3-p02,DOWN
1540422544605617222,network,sp-0-3-p02,DOWN
1540467251580284794,network,sp-0-3-p02,DOWN
1540425288942361553,network,sp-0-3-p02,DOWN
1540468215892157032,network,sp-0-3-p02,DOWN
1540411838132143061,network,sp-0-3-p02,DOWN
1540410077762771272,network,sp-0-3-p02,DOWN
1540412335880566017,network,sp-0-3-p02,DOWN
1540404377384221906,network,sp-0-3-p02,DOWN
1540421547872136809,network,sp-0-3-p02,DOWN
1540417038484816305,network,sp-0-3-p02,DOWN
1540423401533130975,network,sp-0-3-p02,DOWN
1540425907830703279,network,sp-0-3-p02,DOWN
1540409111965795151,network,sp-0-3-p02,DOWN
1540416710042211907,network,sp-0-3-p02,DOWN
1540463723110678398,network,sp-0-3-p02,DOWN
1540466105135810188,network,sp-0-3-p02,DOWN
1540460800156895867,network,sp-0-3-p02,DOWN
1540461633862014884,network,sp-0-3-p02,DOWN
1540422292733569851,network,sp-0-3-p02,DOWN
1540465257786454028,network,sp-0-3-p02,DOWN
1540406071343982091,network,sp-0-3-p02,DOWN
1540463409089410334,network,sp-0-3-p02,DOWN
1540465422665548143,network,sp-0-3-p02,DOWN
1540424821447483600,network,sp-0-3-p02,DOWN
1540468055191142443,network,sp-0-3-p02,DOWN
1540424502181968673,network,sp-0-3-p02,DOWN
1540425592404467995,network,sp-0-3-p02,DOWN
1540424192022469774,network,sp-0-3-p02,DOWN
1540467077954173813,network,sp-0-3-p02,DOWN
1540460623276867765,network,sp-0-3-p02,DOWN
1540405012971984900,network,sp-0-3-p02,DOWN
1540417487356814498,network,sp-0-3-p02,DOWN
1540417187493423646,network,sp-0-3-p02,DOWN
1540425760739935032,network,sp-0-3-p02,DOWN
1540416080346079375,network,sp-0-3-p02,DOWN
1540461454516070565,network,sp-0-3-p02,DOWN
1540466285052072152,network,sp-0-3-p02,DOWN
1540467888695326497,network,sp-0-3-p02,DOWN
1540461817583776938,network,sp-0-3-p02,DOWN
1540415086332821476,network,sp-0-3-p02,DOWN
1540410259582971427,network,sp-0-3-p02,DOWN
1540416390574779648,network,sp-0-3-p02,DOWN
1540408613902670665,network,sp-0-3-p02,DOWN
1540462112432768385,network,sp-0-3-p02,DOWN
1540404226697603341,network,sp-0-3-p02,DOWN
1540422883894951061,network,sp-0-3-p02,DOWN
1540463074941895473,network,sp-0-3-p02,DOWN
1540467589211665514,network,sp-0-3-p02,DOWN
1540466610369099864,network,sp-0-3-p02,DOWN
1540405187130385650,network,sp-0-3-p02,DOWN
1540414554984221215,network,sp-0-3-p02,DOWN
1540423232723699159,network,sp-0-3-p02,DOWN
1540465594199025558,network,sp-0-3-p02,DOWN
1540461284335646920,network,sp-0-3-p02,DOWN
1540466990853463859,network,sp-0-3-p02,DOWN
1540467684573071301,network,sp-0-3-p02,DOWN
1540410407075218631,network,sp-0-3-p02,DOWN
1540413871162082640,network,sp-0-3-p02,DOWN
1540425435584575675,network,sp-0-3-p02,DOWN
1540469763795698597,network,sp-0-3-p02,DOWN
1540469445059578978,network,sp-0-3-p02,DOWN
1540408925269407787,network,sp-0-3-p02,DOWN
1540411231439008046,network,sp-0-3-p02,DOWN
1540406879079025164,network,sp-0-3-p02,DOWN
1540407737916498273,network,sp-0-3-p02,DOWN
1540414406444586417,network,sp-0-3-p02,DOWN
1540426067966429996,network,sp-0-3-p02,DOWN
1540410702941823850,network,sp-0-3-p02,DOWN
1540416547875890466,network,sp-0-3-p02,DOWN
1540414713050488608,network,sp-0-3-p02,DOWN
1540423559573957123,network,sp-0-3-p02,DOWN
1540416884896376792,network,sp-0-3-p02,DOWN
1540412190004970042,network,sp-0-3-p02,DOWN
1540468682621319928,network,sp-0-3-p02,DOWN
1540474717313320430,network,sp-0-3-p02,DOWN
1540424655738767278,network,sp-0-3-p02,DOWN
1540424356236937287,network,sp-0-3-p02,DOWN
1540424967899685651,network,sp-0-3-p02,DOWN
1540415569647507751,network,sp-0-3-p02,DOWN
1540465776921980428,network,sp-0-3-p02,DOWN
1540415263344070912,network,sp-0-3-p02,DOWN
1540415411864580244,network,sp-0-3-p02,DOWN
1540409458300754715,network,sp-0-3-p02,DOWN
1540423880604623753,network,sp-0-3-p02,DOWN
1540415905657356538,network,sp-0-3-p02,DOWN
1540463236012036958,network,sp-0-3-p02,DOWN
1540467735458496527,network,sp-0-3-p02,DOWN
1540465937631955367,network,sp-0-3-p02,DOWN
1540409604171002520,network,sp-0-3-p02,DOWN
1540417333439822344,network,sp-0-3-p02,DOWN
1540408744540386362,network,sp-0-3-p02,DOWN
1540409299315531774,network,sp-0-3-p02,DOWN
1540460963011606998,network,sp-0-3-p02,DOWN
1540462777712814383,network,sp-0-3-p02,DOWN
1540463869477082471,network,sp-0-3-p02,DOWN
1540404077054582793,network,sp-0-3-p02,DOWN
1540422460813584806,network,sp-0-3-p02,DOWN
1540409908137036523,network,sp-0-3-p02,DOWN
1540468822239076622,network,sp-0-3-p02,DOWN
1540466441432420690,network,sp-0-3-p02,DOWN
1540423717370251241,network,sp-0-3-p02,DOWN
1540410865737321052,network,sp-0-3-p02,DOWN
1540416243185513921,network,sp-0-3-p02,DOWN
1540462608371284447,network,sp-0-3-p02,DOWN
1540461118191422498,network,sp-0-3-p02,DOWN
1540462271359551202,network,sp-0-3-p02,DOWN
1540415735581582556,network,sp-0-3-p02,DOWN
1540425122862283060,network,sp-0-3-p02,DOWN
1540468535090597064,network,sp-0-3-p02,DOWN
1540411522287940528,network,sp-0-3-p02,DOWN
1540470545245764827,network,sp-0-3-p02,DOWN
1540467416448186090,network,sp-0-3-p02,DOWN
1540411674228694839,network,sp-0-3-p02,DOWN
1540409750912026498,network,sp-0-3-p02,DOWN
1540414088548069610,network,sp-0-3-p02,DOWN
1540463560716144831,network,sp-0-3-p02,DOWN
1540467527994689428,network,sp-0-3-p02,DOWN
1540407037089463420,network,sp-0-3-p02,DOWN
1540422544605617222,network,sp-0-3-p02,DOWN
1540467251580284794,network,sp-0-3-p02,DOWN
1540470242758093946,network,sp-0-3-p02,DOWN
1540467843716060244,network,sp-0-3-p02,DOWN
1540425288942361553,network,sp-0-3-p02,DOWN
1540468215892157032,network,sp-0-3-p02,DOWN
1540411838132143061,network,sp-0-3-p02,DOWN
1540410077762771272,network,sp-0-3-p02,DOWN
1540412335880566017,network,sp-0-3-p02,DOWN
1540404377384221906,network,sp-0-3-p02,DOWN
1540468996855790145,network,sp-0-3-p02,DOWN
1540469150894210884,network,sp-0-3-p02,DOWN
1540421547872136809,network,sp-0-3-p02,DOWN
1540417038484816305,network,sp-0-3-p02,DOWN
1540423401533130975,network,sp-0-3-p02,DOWN
1540468349169574753,network,sp-0-3-p02,DOWN
1540425907830703279,network,sp-0-3-p02,DOWN
1540409111965795151,network,sp-0-3-p02,DOWN
1540416710042211907,network,sp-0-3-p02,DOWN
1540467378552825839,network,sp-0-3-p02,DOWN
1540463723110678398,network,sp-0-3-p02,DOWN
1540466105135810188,network,sp-0-3-p02,DOWN
1540460800156895867,network,sp-0-3-p02,DOWN
1540461633862014884,network,sp-0-3-p02,DOWN
1540422292733569851,network,sp-0-3-p02,DOWN
1540465257786454028,network,sp-0-3-p02,DOWN
1540406071343982091,network,sp-0-3-p02,DOWN
1540463409089410334,network,sp-0-3-p02,DOWN
1540465422665548143,network,sp-0-3-p02,DOWN
1540424821447483600,network,sp-0-3-p02,DOWN
1540468055191142443,network,sp-0-3-p02,DOWN
1540424502181968673,network,sp-0-3-p02,DOWN
1540425592404467995,network,sp-0-3-p02,DOWN
1540424192022469774,network,sp-0-3-p02,DOWN
1540467077954173813,network,sp-0-3-p02,DOWN
1540460623276867765,network,sp-0-3-p02,DOWN
1540468181818264565,network,sp-0-3-p02,DOWN
1540405012971984900,network,sp-0-3-p02,DOWN
1540417487356814498,network,sp-0-3-p02,DOWN
1540417187493423646,network,sp-0-3-p02,DOWN
1540425760739935032,network,sp-0-3-p02,DOWN
1540416080346079375,network,sp-0-3-p02,DOWN
1540469941017654894,network,sp-0-3-p02,DOWN
1540469299159890779,network,sp-0-3-p02,DOWN
1540461454516070565,network,sp-0-3-p02,DOWN
1540466285052072152,network,sp-0-3-p02,DOWN
1540467888695326497,network,sp-0-3-p02,DOWN
1540461817583776938,network,sp-0-3-p02,DOWN
1540415086332821476,network,sp-0-3-p02,DOWN
1540410259582971427,network,sp-0-3-p02,DOWN
1540416390574779648,network,sp-0-3-p02,DOWN
1540408613902670665,network,sp-0-3-p02,DOWN
1540462112432768385,network,sp-0-3-p02,DOWN
1540404226697603341,network,sp-0-3-p02,DOWN
1540422883894951061,network,sp-0-3-p02,DOWN
1540468497672887617,network,sp-0-3-p02,DOWN
1540463074941895473,network,sp-0-3-p02,DOWN
1540467589211665514,network,sp-0-3-p02,DOWN
1540466610369099864,network,sp-0-3-p02,DOWN
1540405187130385650,network,sp-0-3-p02,DOWN
1540414554984221215,network,sp-0-3-p02,DOWN
1540423232723699159,network,sp-0-3-p02,DOWN
1540470389066870529,network,sp-0-3-p02,DOWN
1540465594199025558,network,sp-0-3-p02,DOWN
1540468015353384897,network,sp-0-3-p02,DOWN
1540461284335646920,network,sp-0-3-p02,DOWN
1540466991215891135,network,sp-0-3-p02,DOWN
1540468505271672329,network,sp-0-3-p02,DOWN
1540461828255935059,network,sp-0-3-p02,DOWN
1540409623183065530,network,sp-0-3-p02,DOWN
1540461975107586834,network,sp-0-3-p02,DOWN
1540465975125999949,network,sp-0-3-p02,DOWN
1540459121385576889,network,sp-0-3-p02,DOWN
1540413871521620494,network,sp-0-3-p02,DOWN
1540468354118477789,network,sp-0-3-p02,DOWN
1540411548528451580,network,sp-0-3-p02,DOWN
1540461639268187346,network,sp-0-3-p02,DOWN
1540467296866624649,network,sp-0-3-p02,DOWN
1540409775217393796,network,sp-0-3-p02,DOWN
1540466942238291755,network,sp-0-3-p02,DOWN
1540414634920054993,network,sp-0-3-p02,DOWN
1540467765131340713,network,sp-0-3-p02,DOWN
1540466274206671936,network,sp-0-3-p02,DOWN
1540465612193338186,network,sp-0-3-p02,DOWN
1540469336965572462,network,sp-0-3-p02,DOWN
1540413905409341786,network,sp-0-3-p02,DOWN
1540467699076277032,network,sp-0-3-p02,DOWN
1540414422301113402,network,sp-0-3-p02,DOWN
1540469533349345826,network,sp-0-3-p02,DOWN
1540411705626831554,network,sp-0-3-p02,DOWN
1540413012928905195,network,sp-0-3-p02,DOWN
1540468558734966321,network,sp-0-3-p02,DOWN
1540467110012019922,network,sp-0-3-p02,DOWN
1540465747556533404,network,sp-0-3-p02,DOWN
1540414740373668687,network,sp-0-3-p02,DOWN
1540412866694481410,network,sp-0-3-p02,DOWN
1540470267835838645,network,sp-0-3-p02,DOWN
1540414487622184539,network,sp-0-3-p02,DOWN
1540466418400016279,network,sp-0-3-p02,DOWN
1540414342043187152,network,sp-0-3-p02,DOWN
1540462940137923937,network,sp-0-3-p02,DOWN
1540412814252388207,network,sp-0-3-p02,DOWN
1540472492797683637,network,sp-0-3-p02,DOWN
1540467745551550664,network,sp-0-3-p02,DOWN
1540413307166309971,network,sp-0-3-p02,DOWN
1540424389208121356,network,sp-0-3-p02,DOWN
1540467532505534030,network,sp-0-3-p02,DOWN
1540467257563142150,network,sp-0-3-p02,DOWN
1540469974271548381,network,sp-0-3-p02,DOWN
1540467924028128160,network,sp-0-3-p02,DOWN
1540425960419292753,network,sp-0-3-p02,DOWN
1540410739298430470,network,sp-0-3-p02,DOWN
1540422718999617867,network,sp-0-3-p02,DOWN
1540459419920621911,network,sp-0-3-p02,DOWN
1540425808379602690,network,sp-0-3-p02,DOWN
1540466786520550584,network,sp-0-3-p02,DOWN
1540471303756402635,network,sp-0-3-p02,DOWN
1540423075366740993,network,sp-0-3-p02,DOWN
1540470865243941474,network,sp-0-3-p02,DOWN
1540425486337314689,network,sp-0-3-p02,DOWN
1540471011389465925,network,sp-0-3-p02,DOWN
1540470718475615666,network,sp-0-3-p02,DOWN
1540464223080211594,network,sp-0-3-p02,DOWN
1540466126659347373,network,sp-0-3-p02,DOWN
1540469982765504376,network,sp-0-3-p02,DOWN
1540469031846852821,network,sp-0-3-p02,DOWN
1540417372329650621,network,sp-0-3-p02,DOWN
1540461485509817013,network,sp-0-3-p02,DOWN
1540471598890812127,network,sp-0-3-p02,DOWN
1540464944421684194,network,sp-0-3-p02,DOWN
1540413613798763828,network,sp-0-3-p02,DOWN
1540466296229483438,network,sp-0-3-p02,DOWN
1540408744930664024,network,sp-0-3-p02,DOWN
1540466186979420924,network,sp-0-3-p02,DOWN
1540423914509472279,network,sp-0-3-p02,DOWN
1540466638252025438,network,sp-0-3-p02,DOWN
1540405827100457481,network,sp-0-3-p02,DOWN
1540466463380410699,network,sp-0-3-p02,DOWN
1540404077496030747,network,sp-0-3-p02,DOWN
1540465258199022026,network,sp-0-3-p02,DOWN
1540408934793124566,network,sp-0-3-p02,DOWN
1540470292275161321,network,sp-0-3-p02,DOWN
1540410583738817491,network,sp-0-3-p02,DOWN
1540472038622750398,network,sp-0-3-p02,DOWN
1540472187144006629,network,sp-0-3-p02,DOWN
1540414051357994716,network,sp-0-3-p02,DOWN
1540414915252987119,network,sp-0-3-p02,DOWN
1540425178640614558,network,sp-0-3-p02,DOWN
1540465382930837403,network,sp-0-3-p02,DOWN
1540404983612359068,network,sp-0-3-p02,DOWN
1540405311588179553,network,sp-0-3-p02,DOWN
1540425335383744769,network,sp-0-3-p02,DOWN
1540468402877268883,network,sp-0-3-p02,DOWN
1540415416649355133,network,sp-0-3-p02,DOWN
1540467868954581181,network,sp-0-3-p02,DOWN
1540405349544185164,network,sp-0-3-p02,DOWN
1540467433818314491,network,sp-0-3-p02,DOWN
1540468849873362814,network,sp-0-3-p02,DOWN
1540470414797997247,network,sp-0-3-p02,DOWN
1540424695939472023,network,sp-0-3-p02,DOWN
1540468243787031496,network,sp-0-3-p02,DOWN
1540469815913430785,network,sp-0-3-p02,DOWN
1540463097346892456,network,sp-0-3-p02,DOWN
1540414574814294000,network,sp-0-3-p02,DOWN
1540466564010772739,network,sp-0-3-p02,DOWN
1540415265579295295,network,sp-0-3-p02,DOWN
1540412229385544183,network,sp-0-3-p02,DOWN
1540465780631405474,network,sp-0-3-p02,DOWN
1540416103468497371,network,sp-0-3-p02,DOWN
1540468870498032514,network,sp-0-3-p02,DOWN
1540417078342323143,network,sp-0-3-p02,DOWN
1540416740006218555,network,sp-0-3-p02,DOWN
1540465430846477747,network,sp-0-3-p02,DOWN
1540468708553454533,network,sp-0-3-p02,DOWN
1540425016955484080,network,sp-0-3-p02,DOWN
1540469244456588127,network,sp-0-3-p02,DOWN
1540467196240859700,network,sp-0-3-p02,DOWN
1540469827661221169,network,sp-0-3-p02,DOWN
1540426124045458763,network,sp-0-3-p02,DOWN
1540405711519087626,network,sp-0-3-p02,DOWN
1540409937938797882,network,sp-0-3-p02,DOWN
1540470145608864725,network,sp-0-3-p02,DOWN
1540465236818824169,network,sp-0-3-p02,DOWN
1540404383024364625,network,sp-0-3-p02,DOWN
1540465824813808873,network,sp-0-3-p02,DOWN
1540409130830921534,network,sp-0-3-p02,DOWN
1540469679788978067,network,sp-0-3-p02,DOWN
1540463443981065047,network,sp-0-3-p02,DOWN
1540413740569202857,network,sp-0-3-p02,DOWN
1540460966170787152,network,sp-0-3-p02,DOWN
1540411876244269483,network,sp-0-3-p02,DOWN
1540413759260184122,network,sp-0-3-p02,DOWN
1540414275348689681,network,sp-0-3-p02,DOWN
1540471745484375190,network,sp-0-3-p02,DOWN
1540412573094023615,network,sp-0-3-p02,DOWN
1540464509033779956,network,sp-0-3-p02,DOWN
1540410113165886569,network,sp-0-3-p02,DOWN
1540422902872640378,network,sp-0-3-p02,DOWN
1540460534599669398,network,sp-0-3-p02,DOWN
1540471450777724723,network,sp-0-3-p02,DOWN
1540415940559593387,network,sp-0-3-p02,DOWN
1540465677655602684,network,sp-0-3-p02,DOWN
1540411402139074560,network,sp-0-3-p02,DOWN
1540464051980456298,network,sp-0-3-p02,DOWN
1540459274364289463,network,sp-0-3-p02,DOWN
1540468096163492827,network,sp-0-3-p02,DOWN
1540414780727255576,network,sp-0-3-p02,DOWN
1540415582741356462,network,sp-0-3-p02,DOWN
1540423740949123733,network,sp-0-3-p02,DOWN
1540424061612675335,network,sp-0-3-p02,DOWN
1540415093051952061,network,sp-0-3-p02,DOWN
1540405146458147411,network,sp-0-3-p02,DOWN
1540417224440987168,network,sp-0-3-p02,DOWN
1540425650346063383,network,sp-0-3-p02,DOWN
1540466854985763123,network,sp-0-3-p02,DOWN
1540466708974821580,network,sp-0-3-p02,DOWN
1540412058110377853,network,sp-0-3-p02,DOWN
1540469484875919628,network,sp-0-3-p02,DOWN
1540424219473073481,network,sp-0-3-p02,DOWN
1540406071760370205,network,sp-0-3-p02,DOWN
1540414095413263470,network,sp-0-3-p02,DOWN
1540472339110341144,network,sp-0-3-p02,DOWN
1540463893652636123,network,sp-0-3-p02,DOWN
1540472638399719597,network,sp-0-3-p02,DOWN
1540410436823387360,network,sp-0-3-p02,DOWN
1540461303710218033,network,sp-0-3-p02,DOWN
1540461127979322690,network,sp-0-3-p02,DOWN
1540412961076265008,network,sp-0-3-p02,DOWN
1540460623670098671,network,sp-0-3-p02,DOWN
1540462132290686713,network,sp-0-3-p02,DOWN
1540467617707399043,network,sp-0-3-p02,DOWN
1540462473988712616,network,sp-0-3-p02,DOWN
1540405074928498998,network,sp-0-3-p02,DOWN
1540409329546217790,network,sp-0-3-p02,DOWN
1540409476282147700,network,sp-0-3-p02,DOWN
1540459713452488560,network,sp-0-3-p02,DOWN
1540414196260371240,network,sp-0-3-p02,DOWN
1540468202487013390,network,sp-0-3-p02,DOWN
1540469389133200325,network,sp-0-3-p02,DOWN
1540463745943281572,network,sp-0-3-p02,DOWN
1540424536389209646,network,sp-0-3-p02,DOWN
1540471891804634460,network,sp-0-3-p02,DOWN
1540416250923168851,network,sp-0-3-p02,DOWN
1540470564849907560,network,sp-0-3-p02,DOWN
1540463599996482191,network,sp-0-3-p02,DOWN
1540404226871721906,network,sp-0-3-p02,DOWN
1540465893615890708,network,sp-0-3-p02,DOWN
1540468046955544123,network,sp-0-3-p02,DOWN
1540467443699610465,network,sp-0-3-p02,DOWN
1540405565112226669,network,sp-0-3-p02,DOWN
1540416401581470074,network,sp-0-3-p02,DOWN
1540405187457634025,network,sp-0-3-p02,DOWN
1540468675463415226,network,sp-0-3-p02,DOWN
1540405980803884373,network,sp-0-3-p02,DOWN
1540415758356477904,network,sp-0-3-p02,DOWN
1540416920153277934,network,sp-0-3-p02,DOWN
1540466128900136094,network,sp-0-3-p02,DOWN
1540422545029938566,network,sp-0-3-p02,DOWN
1540470120359410989,network,sp-0-3-p02,DOWN
1540465948590761218,network,sp-0-3-p02,DOWN
1540416566690868768,network,sp-0-3-p02,DOWN
1540424867946291830,network,sp-0-3-p02,DOWN
1540459566245798175,network,sp-0-3-p02,DOWN
1540412210936126955,network,sp-0-3-p02,DOWN
